hardware/chisel/build/verilator/TestAccel.vcd
$version Generated by VerilatedVcd $end
$date Wed Jul 17 10:24:13 2019
 $end
$timescale   1ns $end

 $scope module TOP $end
  $var wire  1 7! clock $end
  $var wire  1 8! reset $end
  $var wire  1 9! sim_clock $end
  $var wire  1 :! sim_wait $end
  $scope module TestAccel $end
   $var wire  1 7! clock $end
   $var wire  1 8! reset $end
   $var wire  1 9! sim_clock $end
   $var wire  1 7! sim_shell_clock $end
   $var wire  8 1! sim_shell_host_req_addr [7:0] $end
   $var wire  1 # sim_shell_host_req_deq $end
   $var wire  1 0! sim_shell_host_req_opcode $end
   $var wire  1 /! sim_shell_host_req_valid $end
   $var wire 32 2! sim_shell_host_req_value [31:0] $end
   $var wire 32 % sim_shell_host_resp_bits [31:0] $end
   $var wire  1 $ sim_shell_host_resp_valid $end
   $var wire 64 4! sim_shell_mem_rd_bits [63:0] $end
   $var wire  1 - sim_shell_mem_rd_ready $end
   $var wire  1 3! sim_shell_mem_rd_valid $end
   $var wire 64 ( sim_shell_mem_req_addr [63:0] $end
   $var wire  1 ' sim_shell_mem_req_opcode $end
   $var wire  1 & sim_shell_mem_req_valid $end
   $var wire 64 + sim_shell_mem_wr_bits [63:0] $end
   $var wire  1 * sim_shell_mem_wr_valid $end
   $var wire  1 8! sim_shell_reset $end
   $var wire  1 9! sim_shell_sim_clock $end
   $var wire  1 6! sim_shell_sim_wait $end
   $var wire  1 :! sim_wait $end
   $var wire  1 7! vta_accel_clock $end
   $var wire  8 1! vta_accel_io_host_req_addr [7:0] $end
   $var wire  1 # vta_accel_io_host_req_deq $end
   $var wire  1 0! vta_accel_io_host_req_opcode $end
   $var wire  1 /! vta_accel_io_host_req_valid $end
   $var wire 32 2! vta_accel_io_host_req_value [31:0] $end
   $var wire 32 % vta_accel_io_host_resp_bits [31:0] $end
   $var wire  1 $ vta_accel_io_host_resp_valid $end
   $var wire 64 4! vta_accel_io_mem_rd_bits [63:0] $end
   $var wire  1 - vta_accel_io_mem_rd_ready $end
   $var wire  1 3! vta_accel_io_mem_rd_valid $end
   $var wire 64 ( vta_accel_io_mem_req_addr [63:0] $end
   $var wire  1 ' vta_accel_io_mem_req_opcode $end
   $var wire  1 & vta_accel_io_mem_req_valid $end
   $var wire 64 + vta_accel_io_mem_wr_bits [63:0] $end
   $var wire  1 * vta_accel_io_mem_wr_valid $end
   $var wire  1 8! vta_accel_reset $end
   $scope module sim_shell $end
    $var wire  1 7! clock $end
    $var wire  8 1! host_req_addr [7:0] $end
    $var wire  1 # host_req_deq $end
    $var wire  1 0! host_req_opcode $end
    $var wire  1 /! host_req_valid $end
    $var wire 32 2! host_req_value [31:0] $end
    $var wire 32 % host_resp_bits [31:0] $end
    $var wire  1 $ host_resp_valid $end
    $var wire 64 4! mem_rd_bits [63:0] $end
    $var wire  1 - mem_rd_ready $end
    $var wire  1 3! mem_rd_valid $end
    $var wire 64 ( mem_req_addr [63:0] $end
    $var wire  1 ' mem_req_opcode $end
    $var wire  1 & mem_req_valid $end
    $var wire 64 + mem_wr_bits [63:0] $end
    $var wire  1 * mem_wr_valid $end
    $var wire  1 7! mod_host_clock $end
    $var wire  8 1! mod_host_dpi_req_addr [7:0] $end
    $var wire  1 # mod_host_dpi_req_deq $end
    $var wire  1 0! mod_host_dpi_req_opcode $end
    $var wire  1 /! mod_host_dpi_req_valid $end
    $var wire 32 2! mod_host_dpi_req_value [31:0] $end
    $var wire 32 % mod_host_dpi_resp_bits [31:0] $end
    $var wire  1 $ mod_host_dpi_resp_valid $end
    $var wire  1 8! mod_host_reset $end
    $var wire  1 7! mod_mem_clock $end
    $var wire 64 4! mod_mem_dpi_rd_bits [63:0] $end
    $var wire  1 - mod_mem_dpi_rd_ready $end
    $var wire  1 3! mod_mem_dpi_rd_valid $end
    $var wire 64 ( mod_mem_dpi_req_addr [63:0] $end
    $var wire  8 ;! mod_mem_dpi_req_len [7:0] $end
    $var wire  1 ' mod_mem_dpi_req_opcode $end
    $var wire  1 & mod_mem_dpi_req_valid $end
    $var wire 64 + mod_mem_dpi_wr_bits [63:0] $end
    $var wire  1 * mod_mem_dpi_wr_valid $end
    $var wire  1 8! mod_mem_reset $end
    $var wire  1 9! mod_sim_clock $end
    $var wire  1 6! mod_sim_dpi_wait $end
    $var wire  1 8! mod_sim_reset $end
    $var wire  1 8! reset $end
    $var wire  1 9! sim_clock $end
    $var wire  1 6! sim_wait $end
    $scope module mod_host $end
     $var wire 32 <! ADDR_BITS [31:0] $end
     $var wire 32 =! DATA_BITS [31:0] $end
     $var wire  1 7! clock $end
     $var wire  8 1! dpi_req_addr [7:0] $end
     $var wire  1 # dpi_req_deq $end
     $var wire  1 0! dpi_req_opcode $end
     $var wire  1 /! dpi_req_valid $end
     $var wire 32 2! dpi_req_value [31:0] $end
     $var wire 32 % dpi_resp_bits [31:0] $end
     $var wire  1 $ dpi_resp_valid $end
     $var wire  1 8! reset $end
    $upscope $end
    $scope module mod_mem $end
     $var wire 32 >! ADDR_BITS [31:0] $end
     $var wire 32 >! DATA_BITS [31:0] $end
     $var wire 32 <! LEN_BITS [31:0] $end
     $var wire  1 7! clock $end
     $var wire 64 4! dpi_rd_bits [63:0] $end
     $var wire  1 - dpi_rd_ready $end
     $var wire  1 3! dpi_rd_valid $end
     $var wire 64 ( dpi_req_addr [63:0] $end
     $var wire  8 ;! dpi_req_len [7:0] $end
     $var wire  1 ' dpi_req_opcode $end
     $var wire  1 & dpi_req_valid $end
     $var wire 64 + dpi_wr_bits [63:0] $end
     $var wire  1 * dpi_wr_valid $end
     $var wire  1 8! reset $end
    $upscope $end
    $scope module mod_sim $end
     $var wire  1 9! clock $end
     $var wire  1 6! dpi_wait $end
     $var wire  1 8! reset $end
     $var wire  1 6! wait_reg $end
    $upscope $end
   $upscope $end
   $scope module vta_accel $end
    $var wire  1 7! ce_clock $end
    $var wire 32 0 ce_io_ecnt_0_bits [31:0] $end
    $var wire  1 / ce_io_ecnt_0_valid $end
    $var wire  1 * ce_io_finish $end
    $var wire  1 . ce_io_launch $end
    $var wire 64 4! ce_io_mem_rd_bits [63:0] $end
    $var wire  1 - ce_io_mem_rd_ready $end
    $var wire  1 3! ce_io_mem_rd_valid $end
    $var wire 64 ( ce_io_mem_req_addr [63:0] $end
    $var wire  1 ' ce_io_mem_req_opcode $end
    $var wire  1 & ce_io_mem_req_valid $end
    $var wire 64 + ce_io_mem_wr_bits [63:0] $end
    $var wire  1 * ce_io_mem_wr_valid $end
    $var wire 64 4 ce_io_ptrs_0 [63:0] $end
    $var wire 64 6 ce_io_ptrs_1 [63:0] $end
    $var wire 64 8 ce_io_ptrs_2 [63:0] $end
    $var wire 32 1 ce_io_vals_0 [31:0] $end
    $var wire 32 2 ce_io_vals_1 [31:0] $end
    $var wire 32 3 ce_io_vals_2 [31:0] $end
    $var wire  1 8! ce_reset $end
    $var wire  1 7! clock $end
    $var wire  8 1! io_host_req_addr [7:0] $end
    $var wire  1 # io_host_req_deq $end
    $var wire  1 0! io_host_req_opcode $end
    $var wire  1 /! io_host_req_valid $end
    $var wire 32 2! io_host_req_value [31:0] $end
    $var wire 32 % io_host_resp_bits [31:0] $end
    $var wire  1 $ io_host_resp_valid $end
    $var wire 64 4! io_mem_rd_bits [63:0] $end
    $var wire  1 - io_mem_rd_ready $end
    $var wire  1 3! io_mem_rd_valid $end
    $var wire 64 ( io_mem_req_addr [63:0] $end
    $var wire  1 ' io_mem_req_opcode $end
    $var wire  1 & io_mem_req_valid $end
    $var wire 64 + io_mem_wr_bits [63:0] $end
    $var wire  1 * io_mem_wr_valid $end
    $var wire  1 8! reset $end
    $var wire  1 7! rf_clock $end
    $var wire 32 0 rf_io_ecnt_0_bits [31:0] $end
    $var wire  1 / rf_io_ecnt_0_valid $end
    $var wire  1 * rf_io_finish $end
    $var wire  8 1! rf_io_host_req_addr [7:0] $end
    $var wire  1 # rf_io_host_req_deq $end
    $var wire  1 0! rf_io_host_req_opcode $end
    $var wire  1 /! rf_io_host_req_valid $end
    $var wire 32 2! rf_io_host_req_value [31:0] $end
    $var wire 32 % rf_io_host_resp_bits [31:0] $end
    $var wire  1 $ rf_io_host_resp_valid $end
    $var wire  1 . rf_io_launch $end
    $var wire 64 4 rf_io_ptrs_0 [63:0] $end
    $var wire 64 6 rf_io_ptrs_1 [63:0] $end
    $var wire 64 8 rf_io_ptrs_2 [63:0] $end
    $var wire 32 1 rf_io_vals_0 [31:0] $end
    $var wire 32 2 rf_io_vals_1 [31:0] $end
    $var wire 32 3 rf_io_vals_2 [31:0] $end
    $var wire  1 8! rf_reset $end
    $scope module ce $end
     $var wire  1 7! clock $end
     $var wire 32 l cnt [31:0] $end
     $var wire 32 0 cycles [31:0] $end
     $var wire  1 7! dot_clock $end
     $var wire  8 D dot_io_arrA_0 [7:0] $end
     $var wire  8 E dot_io_arrA_1 [7:0] $end
     $var wire  8 F dot_io_arrA_2 [7:0] $end
     $var wire  8 G dot_io_arrA_3 [7:0] $end
     $var wire  8 H dot_io_arrA_4 [7:0] $end
     $var wire  8 I dot_io_arrA_5 [7:0] $end
     $var wire  8 J dot_io_arrA_6 [7:0] $end
     $var wire  8 K dot_io_arrA_7 [7:0] $end
     $var wire  8 L dot_io_arrB_0 [7:0] $end
     $var wire  8 M dot_io_arrB_1 [7:0] $end
     $var wire  8 N dot_io_arrB_2 [7:0] $end
     $var wire  8 O dot_io_arrB_3 [7:0] $end
     $var wire  8 P dot_io_arrB_4 [7:0] $end
     $var wire  8 Q dot_io_arrB_5 [7:0] $end
     $var wire  8 R dot_io_arrB_6 [7:0] $end
     $var wire  8 S dot_io_arrB_7 [7:0] $end
     $var wire 23 U dot_io_res [22:0] $end
     $var wire  1 C dot_io_start $end
     $var wire  1 T dot_io_valid $end
     $var wire  1 8! dot_reset $end
     $var wire 32 @! initvar [31:0] $end
     $var wire 32 0 io_ecnt_0_bits [31:0] $end
     $var wire  1 / io_ecnt_0_valid $end
     $var wire  1 * io_finish $end
     $var wire  1 . io_launch $end
     $var wire 64 4! io_mem_rd_bits [63:0] $end
     $var wire  1 - io_mem_rd_ready $end
     $var wire  1 3! io_mem_rd_valid $end
     $var wire 64 ( io_mem_req_addr [63:0] $end
     $var wire  1 ' io_mem_req_opcode $end
     $var wire  1 & io_mem_req_valid $end
     $var wire 64 + io_mem_wr_bits [63:0] $end
     $var wire  1 * io_mem_wr_valid $end
     $var wire 64 4 io_ptrs_0 [63:0] $end
     $var wire 64 6 io_ptrs_1 [63:0] $end
     $var wire 64 8 io_ptrs_2 [63:0] $end
     $var wire 32 1 io_vals_0 [31:0] $end
     $var wire 32 2 io_vals_1 [31:0] $end
     $var wire 32 3 io_vals_2 [31:0] $end
     $var wire  1 s last $end
     $var wire  1 7! overallAccum_clock $end
     $var wire 63 X overallAccum_io_in [62:0] $end
     $var wire  1 * overallAccum_io_ready $end
     $var wire  1 V overallAccum_io_rst $end
     $var wire 64 + overallAccum_io_sum [63:0] $end
     $var wire  1 W overallAccum_io_valid $end
     $var wire  1 8! overallAccum_reset $end
     $var wire 64 m raddr1 [63:0] $end
     $var wire 64 o raddr2 [63:0] $end
     $var wire 32 \ reg1_0 [31:0] $end
     $var wire 32 ] reg1_1 [31:0] $end
     $var wire 32 ^ reg1_2 [31:0] $end
     $var wire 32 _ reg1_3 [31:0] $end
     $var wire 32 ` reg1_4 [31:0] $end
     $var wire 32 a reg1_5 [31:0] $end
     $var wire 32 b reg1_6 [31:0] $end
     $var wire 32 c reg1_7 [31:0] $end
     $var wire 32 d reg2_0 [31:0] $end
     $var wire 32 e reg2_1 [31:0] $end
     $var wire 32 f reg2_2 [31:0] $end
     $var wire 32 g reg2_3 [31:0] $end
     $var wire 32 h reg2_4 [31:0] $end
     $var wire 32 i reg2_5 [31:0] $end
     $var wire 32 j reg2_6 [31:0] $end
     $var wire 32 k reg2_7 [31:0] $end
     $var wire  1 8! reset $end
     $var wire  8 [ shift [7:0] $end
     $var wire 278 t shiftReg [277:0] $end
     $var wire  3 Z state [2:0] $end
     $var wire  1 W validReg $end
     $var wire 64 q waddr [63:0] $end
     $scope module dot $end
      $var wire 23 '! accum_0 [22:0] $end
      $var wire 23 (! accum_1 [22:0] $end
      $var wire 23 )! accum_2 [22:0] $end
      $var wire 23 *! accum_3 [22:0] $end
      $var wire 23 +! accum_4 [22:0] $end
      $var wire 23 ,! accum_5 [22:0] $end
      $var wire 23 -! accum_6 [22:0] $end
      $var wire 23 U accum_7 [22:0] $end
      $var wire  1 7! clock $end
      $var wire  4 .! cnt [3:0] $end
      $var wire 32 A! initvar [31:0] $end
      $var wire  8 D io_arrA_0 [7:0] $end
      $var wire  8 E io_arrA_1 [7:0] $end
      $var wire  8 F io_arrA_2 [7:0] $end
      $var wire  8 G io_arrA_3 [7:0] $end
      $var wire  8 H io_arrA_4 [7:0] $end
      $var wire  8 I io_arrA_5 [7:0] $end
      $var wire  8 J io_arrA_6 [7:0] $end
      $var wire  8 K io_arrA_7 [7:0] $end
      $var wire  8 L io_arrB_0 [7:0] $end
      $var wire  8 M io_arrB_1 [7:0] $end
      $var wire  8 N io_arrB_2 [7:0] $end
      $var wire  8 O io_arrB_3 [7:0] $end
      $var wire  8 P io_arrB_4 [7:0] $end
      $var wire  8 Q io_arrB_5 [7:0] $end
      $var wire  8 R io_arrB_6 [7:0] $end
      $var wire  8 S io_arrB_7 [7:0] $end
      $var wire 23 U io_res [22:0] $end
      $var wire  1 C io_start $end
      $var wire  1 T io_valid $end
      $var wire 16 } product_0 [15:0] $end
      $var wire 16 ~ product_1 [15:0] $end
      $var wire 16 !! product_2 [15:0] $end
      $var wire 16 "! product_3 [15:0] $end
      $var wire 16 #! product_4 [15:0] $end
      $var wire 16 $! product_5 [15:0] $end
      $var wire 16 %! product_6 [15:0] $end
      $var wire 16 &! product_7 [15:0] $end
      $var wire  1 8! reset $end
     $upscope $end
     $scope module overallAccum $end
      $var wire  1 7! clock $end
      $var wire 32 B! initvar [31:0] $end
      $var wire 63 X io_in [62:0] $end
      $var wire  1 * io_ready $end
      $var wire  1 V io_rst $end
      $var wire 64 + io_sum [63:0] $end
      $var wire  1 W io_valid $end
      $var wire  1 * ready $end
      $var wire 64 + reg$ [63:0] $end
      $var wire  1 8! reset $end
     $upscope $end
    $upscope $end
    $scope module rf $end
     $var wire  1 7! clock $end
     $var wire 32 ?! initvar [31:0] $end
     $var wire 32 0 io_ecnt_0_bits [31:0] $end
     $var wire  1 / io_ecnt_0_valid $end
     $var wire  1 * io_finish $end
     $var wire  8 1! io_host_req_addr [7:0] $end
     $var wire  1 # io_host_req_deq $end
     $var wire  1 0! io_host_req_opcode $end
     $var wire  1 /! io_host_req_valid $end
     $var wire 32 2! io_host_req_value [31:0] $end
     $var wire 32 % io_host_resp_bits [31:0] $end
     $var wire  1 $ io_host_resp_valid $end
     $var wire  1 . io_launch $end
     $var wire 64 4 io_ptrs_0 [63:0] $end
     $var wire 64 6 io_ptrs_1 [63:0] $end
     $var wire 64 8 io_ptrs_2 [63:0] $end
     $var wire 32 1 io_vals_0 [31:0] $end
     $var wire 32 2 io_vals_1 [31:0] $end
     $var wire 32 3 io_vals_2 [31:0] $end
     $var wire 32 % rdata [31:0] $end
     $var wire 32 : reg_0 [31:0] $end
     $var wire 32 ; reg_1 [31:0] $end
     $var wire 32 A reg_10 [31:0] $end
     $var wire 32 B reg_11 [31:0] $end
     $var wire 32 1 reg_2 [31:0] $end
     $var wire 32 2 reg_3 [31:0] $end
     $var wire 32 3 reg_4 [31:0] $end
     $var wire 32 < reg_5 [31:0] $end
     $var wire 32 = reg_6 [31:0] $end
     $var wire 32 > reg_7 [31:0] $end
     $var wire 32 ? reg_8 [31:0] $end
     $var wire 32 @ reg_9 [31:0] $end
     $var wire  1 8! reset $end
     $var wire  1 $ state $end
    $upscope $end
   $upscope $end
  $upscope $end
 $upscope $end
$enddefinitions $end


#0
0#
0$
b00000011001110101111000011000001 %
0&
0'
b1100010111000101110000101100001101000001010001010101100001111101 (
1*
b1011011110010101001011011100011101111100001000111111111011110011 +
0-
1.
0/
b10011110111100000111011111001111 0
b10010011011011111110001101110010 1
b11111111010001100110011001100010 2
b10000100101000110000000010001110 3
b0000011110110010001011100100100100110010001111000000000100110100 4
b0111111001101000011110101010110011000001110011010010110101011101 6
b1110100000111011100100011100000001100000101000000111101110011100 8
b11111111100001100111011011010111 :
b10101111110110001101100011100011 ;
b01101101101100111000100101001110 <
b00110010001111000000000100110100 =
b00000111101100100010111001001001 >
b11000001110011010010110101011101 ?
b01111110011010000111101010101100 @
b01100000101000000111101110011100 A
b11101000001110111001000111000000 B
0C
b10101000 D
b01101010 E
b01001001 F
b00001011 G
b10111100 H
b10011000 I
b10101110 J
b00100010 K
b11011111 L
b10000001 M
b11010100 N
b00001010 O
b11100111 P
b10011101 Q
b01111011 R
b11111001 S
0T
b00001011010000000100101 U
0V
1W
b110011110101000101111011111000101101010110011110111010011110101 X
b111 Z
b01110010 [
b11110010111010011100010010101000 \
b10100110010110011010001001101010 ]
b01100110000111101000111001001001 ^
b11101001011110000111111100001011 _
b10010001111110111000001010111100 `
b10111011000110001100000010011000 a
b00110101011110110011100110101110 b
b10100001111000001110100000100010 c
b11001101110000011010110011011111 d
b01000000110101101010000010000001 e
b10111100000000010111001111010100 f
b00011101111000101101010100001010 g
b11011111010101110100000011100111 h
b01101010111110111011100010011101 i
b00110000011100001001000001111011 j
b01101111001011001110101011111001 k
b10110111000010100110110111001000 l
b1000010001010011100010111110110111111111100111100111011100010001 m
b0111011100011111100011110010100111111001000000111011001010100100 o
b1100010111000101110000101100001101000001010001010101100001111101 q
0s
b11000001100110100111100001100011010100000111010110100110110110001000111110101011100000010110000010111000000111100100000111010110110000010100101000000101010100101110111111101100011101011001011000100110101010001110111110011110101000101111011111000101101010110011110111010011110101 t
b0111111101000010 }
b0011111000000010 ~
b1110110101101110 !!
b0111010110101001 "!
b0000001100010101 #!
b0010010001010111 $!
b1001010100000110 %!
b0111101001111110 &!
b11100000100101110100100 '!
b00000010101001111001000 (!
b01010101011101100100101 )!
b01000110110011100010101 *!
b10111111111101110111101 +!
b01110101001111111111010 ,!
b10111001010111010110111 -!
b1101 .!
0/!
00!
b00000000 1!
b00000000000000000000000000000000 2!
03!
b0000000000000000000000000000000000000000000000000000000000000000 4!
06!
07!
18!
09!
0:!
b00000000 ;!
b00000000000000000000000000001000 <!
b00000000000000000000000000100000 =!
b00000000000000000000000001000000 >!
b00000000000000000000000000000000 ?!
b00000000000000000000000000000000 @!
b00000000000000000000000000000000 A!
b00000000000000000000000000000000 B!
#1
b00000000000000000000000000000000 %
b0000000000000000000000000000000000000000000000000000000000000000 +
0.
b00000000000000000000000000000000 0
b00000000000000000000000000000000 1
b00000000000000000000000000000000 2
b00000000000000000000000000000000 3
b0000000000000000000000000000000000000000000000000000000000000000 4
b0000000000000000000000000000000000000000000000000000000000000000 6
b0000000000000000000000000000000000000000000000000000000000000000 8
b00000000000000000000000000000000 :
b00000000000000000000000000000000 ;
b00000000000000000000000000000000 <
b00000000000000000000000000000000 =
b00000000000000000000000000000000 >
b00000000000000000000000000000000 ?
b00000000000000000000000000000000 @
b00000000000000000000000000000000 A
b00000000000000000000000000000000 B
b00000000000000000000000 U
0W
b000000000000000000000000000000000000000000000000000000000000000 X
b000 Z
b00000000 [
b00000000000000000000000000000000000000000000000000000000000000000000000000000000000000000000000000000000000000000000000000000000000000000000000001011010000000100101000000000000000000000000000000000000000000000000000000000000000000000000000000000000000000000000000000000000000000 t
b0000000000000000 }
b0000000000000000 ~
b0000000000000000 !!
b0000000000000000 "!
b0000000000000000 #!
b0000000000000000 $!
b0000000000000000 %!
b0000000000000000 &!
b00000000000000000000000 '!
b00000000000000000000000 (!
b00000000000000000000000 )!
b00000000000000000000000 *!
b00000000000000000000000 +!
b00000000000000000000000 ,!
b00000000000000000000000 -!
b0000 .!
17!
#2
07!
#3
b0000000000000000000000000000000000000000000000000000000000000000 (
0*
b00000000000000000000000000000000 l
b0000000000000000000000000000000000000000000000000000000000000000 m
b0000000000000000000000000000000000000000000000000000000000000000 o
b0000000000000000000000000000000000000000000000000000000000000000 q
b00000000000000000000000000000000000000000000000000000000000000000000000000000000000000000000000000000000000000000000000000000000000000000000000000000000000000000000000000000000000000000000000000000000000000000000000000000000000000000000000000000000000000000000000000000000000000 t
17!
#4
07!
#5
17!
#6
07!
#7
17!
#8
07!
#9
17!
#10
07!
#11
17!
#12
07!
#13
17!
#14
07!
#15
17!
#16
07!
#17
17!
#18
07!
#19
17!
#20
07!
08!
#21
b1001001001011000 }
b0011010101101010 ~
b0011110001110100 !!
b0000000001101110 "!
b1010100110100100 #!
b0101110100111000 $!
b0101001110011010 %!
b0010000100010010 &!
b0001 .!
16!
17!
19!
1:!
#22
06!
07!
09!
0:!
#23
1#
b00000000010000100010010 U
b00000001001001001011000 '!
b00000000011010101101010 (!
b00000000011110001110100 )!
b00000000000000001101110 *!
b00000001010100110100100 +!
b00000000101110100111000 ,!
b00000000101001110011010 -!
b0010 .!
1/!
10!
b00001000 1!
b1101111010101101101111101110111111011110101011011011111011101111 4!
17!
19!
#24
07!
09!
#25
b00000000111010010101100 U
b000000000000000000000000000000000000000000000000010000100010010 X
b00000000000000000000000000000000000000000000000000000000000000000000000000000000000000000000000000000000000000000000000000000000000000000000000000000000000000000000000000000000000000000000000000000000000000000000000000000000000000000000000000000000000000000000000010000100010010 t
b00000001100011111000010 (!
b00000000111000111011110 )!
b00000000011110011100010 *!
b00000001010101000010010 +!
b00000010000011011011100 ,!
b00000001011000011010010 -!
b0011 .!
17!
19!
#26
07!
09!
#27
b00000001101000111100100 U
b000000000000000000000000000000000000000000000000111010010101100 X
b00000000000000000000000000000000000000000000000000000000000000000000000000000000000000000000000000000000000000000000000000000000000000000000000000000000000000000000000000000000000000000000000000000000000000000000000000000000000000000000000000000000000000000000000111010010101100 t
b00000010000010000110110 )!
b00000000111001001001100 *!
b00000001110011010000110 +!
b00000010000011101001010 ,!
b00000010101101001110110 -!
b0100 .!
b00001100 1!
b00000000000000000000000000000001 2!
17!
19!
#28
07!
09!
#29
b00000000000000000000000000000001 2
b00000010111101110001000 U
b000000000000000000000000000000000000000000000001101000111100100 X
b00000000000000000000000000000000000000000000000000000000000000000000000000000000000000000000000000000000000000000000000000000000000000000000000000000000000000000000000000000000000000000000000000000000000000000000000000000000000000000000000000000000000000000000001101000111100100 t
b00000010000010010100100 *!
b00000010001101111110000 +!
b00000010100001110111110 ,!
b00000010101101011100100 -!
b0101 .!
b00011000 1!
b01010110000111100000010011000000 2!
17!
19!
#30
07!
09!
#31
b0000000000000000000000000000000001010110000111100000010011000000 4
b01010110000111100000010011000000 =
b00000010111101111110110 U
b000000000000000000000000000000000000000000000010111101110001000 X
b00000000000000000000000000000000000000000000000000000000000000000000000000000000000000000000000000000000000000000000000000000000000000000000000000000000000000000000000000000000000000000000000000000000000000000000000000000000000000000000000000000000000000000000010111101110001000 t
b00000011010111001001000 +!
b00000010111100100101000 ,!
b00000011001011101011000 -!
b0110 .!
b00011100 1!
b00000000000000000111111110000010 2!
17!
19!
#32
07!
09!
#33
b0000000000000000011111111000001001010110000111100000010011000000 4
b00000000000000000111111110000010 >
b00000011011100001101010 U
b000000000000000000000000000000000000000000000010111101111110110 X
b0000000000000000000000000000000001010110000111100000010011000000 m
b00000000000000000000000000000000000000000000000000000000000000000000000000000000000000000000000000000000000000000000000000000000000000000000000000000000000000000000000000000000000000000000000000000000000000000000000000000000000000000000000000000000000000000000010111101111110110 t
b00000100000101110000000 ,!
b00000011100110011000010 -!
b0111 .!
b00100000 1!
b01010110000111100000010100000000 2!
17!
19!
#34
07!
09!
#35
b0000000000000000000000000000000001010110000111100000010100000000 6
b01010110000111100000010100000000 ?
1T
b00000011110110111010100 U
b000000000000000000000000000000000000000000000011011100001101010 X
b0000000000000000011111111000001001010110000111100000010011000000 m
b00000000000000000000000000000000000000000000000000000000000000000000000000000000000000000000000000000000000000000000000000000000000000000000000000000000000000000000000000000000000000000000000000000000000000000000000000000000000000000000000000000000000000000000011011100001101010 t
b00000100101111100011010 -!
b1000 .!
b00100100 1!
b00000000000000000111111110000010 2!
17!
19!
#36
07!
09!
#37
b0000000000000000011111111000001001010110000111100000010100000000 6
b00000000000000000111111110000010 @
0T
b00000101000000000101100 U
1W
b000000000000000000000000000000000000000000000011110110111010100 X
b0000000000000000000000000000000001010110000111100000010100000000 o
b00000000000000000000000000000000000000000000000000000000000000000000000000000000000000000000000000000000000000000000000000000000000000000000000000000000000000000000000000000000000000000000000000000000000000000000000000000000000000000000000000000000000000000000011110110111010100 t
b1001 .!
b00101000 1!
b01010110000111100010001001000000 2!
17!
19!
#38
07!
09!
#39
1*
b0000000000000000000000000000000000000000000000011110110111010100 +
b0000000000000000000000000000000001010110000111100010001001000000 8
b01010110000111100010001001000000 A
0W
b000000000000000000000000000000000000000000000101000000000101100 X
b0000000000000000011111111000001001010110000111100000010100000000 o
b00000000000000000000000000000000000000000000000000000000000000000000000000000000000000000000000000000000000000000000000000000000000000000000000000000000000000000000000000000000000000000000000000000000000000000000000000000000000000000000000000000000000000000000101000000000101100 t
b1010 .!
b00101100 1!
b00000000000000000111111110000010 2!
17!
19!
#40
07!
09!
#41
b0000000000000000000000000000000001010110000111100010001001000000 (
0*
b0000000000000000011111111000001001010110000111100010001001000000 8
b00000000000000000000000000000010 :
b00000000000000000111111110000010 B
b0000000000000000000000000000000001010110000111100010001001000000 q
b1011 .!
b00000000 1!
b00000000000000000000000000000001 2!
17!
19!
#42
07!
09!
#43
b0000000000000000011111111000001001010110000111100010001001000000 (
1.
b00000000000000000000000000000001 :
b0000000000000000011111111000001001010110000111100010001001000000 q
b1100 .!
b00000000000000000000000000000000 2!
17!
19!
#44
07!
09!
#45
1&
b0000000000000000011111111000001001010110000111100000010011000000 (
0.
b00000000000000000000000000000000 :
b001 Z
b1101 .!
b00010000 1!
b00000000000000000000000000000001 2!
17!
19!
#46
07!
09!
#47
0&
b0000000000000000011111111000001001010110000111100010001001000000 (
1-
b00000000000000000000000000000001 0
b00000000000000000000000000000001 3
1V
b010 Z
b1110 .!
b00000000000000000000000000000000 2!
17!
19!
#48
07!
09!
#49
b0000000000000000000000000000000000000000000000000000000000000000 +
b00000000000000000000000000000010 0
b00000000000000000000000000000000 3
0V
b1111 .!
b00010100 1!
b00000000000000000000000000000001 2!
13!
b0000100000000111000001100000010100000100000000110000001000000001 4!
17!
19!
#50
07!
09!
#51
1&
b0000000000000000011111111000001001010110000111100000010100000000 (
0-
b00000000000000000000000000000011 0
b00000000000000000000000000000001 <
b00000001 D
b00000010 E
b00000011 F
b00000100 G
b00000101 H
b00000110 I
b00000111 J
b00001000 K
b011 Z
b00000000000000000000000000000001 \
b00000000000000000000000000000010 ]
b00000000000000000000000000000011 ^
b00000000000000000000000000000100 _
b00000000000000000000000000000101 `
b00000000000000000000000000000110 a
b00000000000000000000000000000111 b
b00000000000000000000000000001000 c
b0000 .!
b00000000000000000000000000000000 2!
03!
b1101111010101101101111101110111111011110101011011011111011101111 4!
17!
19!
#52
07!
09!
#53
0&
b0000000000000000011111111000001001010110000111100010001001000000 (
1-
b00000000000000000000000000000100 0
b00000000000000000000000000000000 <
b100 Z
b0000000011011111 }
b0000000100000010 ~
b0000001001111100 !!
b0000000000101000 "!
b0000010010000011 #!
b0000001110101110 $!
b0000001101011101 %!
b0000011111001000 &!
b0001 .!
00!
b00000000 1!
17!
19!
#54
07!
09!
#55
0#
1$
b00000000000000000000000000000101 0
b00000100110011011100010 U
b00000000000000011011111 '!
b00000001001001101011010 (!
b00000001100101000111110 )!
b00000010000010001011110 *!
b00000010000100100100111 +!
b00000011011000111110110 ,!
b00000100000111011011101 -!
b0010 .!
0/!
10!
b10101101 1!
b00000000000000000000101110101101 2!
13!
b0000011100000101000000110000000100000111000001010000001100000001 4!
17!
19!
#56
07!
09!
#57
0$
1&
1'
0-
b00000000000000000000000000000110 0
b00000001 L
b00000011 M
b00000101 N
b00000111 O
b00000001 P
b00000011 Q
b00000101 R
b00000111 S
b00000100001011010100101 U
b000000000000000000000000000000000000000000000100110011011100010 X
b101 Z
b00000000000000000000000000000001 d
b00000000000000000000000000000011 e
b00000000000000000000000000000101 f
b00000000000000000000000000000111 g
b00000000000000000000000000000001 h
b00000000000000000000000000000011 i
b00000000000000000000000000000101 j
b00000000000000000000000000000111 k
b00000000000000000000000000000000000000000000000000000000000000000000000000000000000000000000000000000000000000000000000000000000000000000000000000000000000000000000000000000000000000000000000000000000000000000000000000000000000000000000000000000000000000000000100110011011100010 t
b00000000000000111100001 (!
b00000001001010111010110 )!
b00000001100101001100110 *!
b00000010000100011100001 +!
b00000010000110011010101 ,!
b00000011011010101010011 -!
b0011 .!
03!
b1101111010101101101111101110111111011110101011011011111011101111 4!
17!
19!
#58
07!
09!
#59
0&
0'
1/
b00000000000000000000000000000111 0
b00000011011110100011011 U
b000000000000000000000000000000000000000000000100001011010100101 X
b110 Z
1s
b00000000000000000000000000000000000000000000000000000000000000000000000000000000000000000000000000000000000000000000000000000000000000000000000000000000000000000000000000000000000000000000000000000000000000000000000000000000000000000000000000000000000000000000100001011010100101 t
b0000000000000001 }
b0000000000000110 ~
b0000000000001111 !!
b0000000000011100 "!
b0000000000000101 #!
b0000000000010010 $!
b0000000000100011 %!
b0000000000111000 &!
b00000000000010001011101 )!
b00000001001010111111110 *!
b00000001100111011101001 +!
b00000010000110010001111 ,!
b00000010001000000110010 -!
b0100 .!
17!
19!
#60
07!
09!
