hardware/chisel/build/verilator/TestAccel.vcd
$version Generated by VerilatedVcd $end
$date Wed Jul 17 15:28:17 2019
 $end
$timescale   1ns $end

 $scope module TOP $end
  $var wire  1 7! clock $end
  $var wire  1 8! reset $end
  $var wire  1 9! sim_clock $end
  $var wire  1 :! sim_wait $end
  $scope module TestAccel $end
   $var wire  1 7! clock $end
   $var wire  1 8! reset $end
   $var wire  1 9! sim_clock $end
   $var wire  1 7! sim_shell_clock $end
   $var wire  8 1! sim_shell_host_req_addr [7:0] $end
   $var wire  1 # sim_shell_host_req_deq $end
   $var wire  1 0! sim_shell_host_req_opcode $end
   $var wire  1 /! sim_shell_host_req_valid $end
   $var wire 32 2! sim_shell_host_req_value [31:0] $end
   $var wire 32 % sim_shell_host_resp_bits [31:0] $end
   $var wire  1 $ sim_shell_host_resp_valid $end
   $var wire 64 4! sim_shell_mem_rd_bits [63:0] $end
   $var wire  1 - sim_shell_mem_rd_ready $end
   $var wire  1 3! sim_shell_mem_rd_valid $end
   $var wire 64 ( sim_shell_mem_req_addr [63:0] $end
   $var wire  1 ' sim_shell_mem_req_opcode $end
   $var wire  1 & sim_shell_mem_req_valid $end
   $var wire 64 + sim_shell_mem_wr_bits [63:0] $end
   $var wire  1 * sim_shell_mem_wr_valid $end
   $var wire  1 8! sim_shell_reset $end
   $var wire  1 9! sim_shell_sim_clock $end
   $var wire  1 6! sim_shell_sim_wait $end
   $var wire  1 :! sim_wait $end
   $var wire  1 7! vta_accel_clock $end
   $var wire  8 1! vta_accel_io_host_req_addr [7:0] $end
   $var wire  1 # vta_accel_io_host_req_deq $end
   $var wire  1 0! vta_accel_io_host_req_opcode $end
   $var wire  1 /! vta_accel_io_host_req_valid $end
   $var wire 32 2! vta_accel_io_host_req_value [31:0] $end
   $var wire 32 % vta_accel_io_host_resp_bits [31:0] $end
   $var wire  1 $ vta_accel_io_host_resp_valid $end
   $var wire 64 4! vta_accel_io_mem_rd_bits [63:0] $end
   $var wire  1 - vta_accel_io_mem_rd_ready $end
   $var wire  1 3! vta_accel_io_mem_rd_valid $end
   $var wire 64 ( vta_accel_io_mem_req_addr [63:0] $end
   $var wire  1 ' vta_accel_io_mem_req_opcode $end
   $var wire  1 & vta_accel_io_mem_req_valid $end
   $var wire 64 + vta_accel_io_mem_wr_bits [63:0] $end
   $var wire  1 * vta_accel_io_mem_wr_valid $end
   $var wire  1 8! vta_accel_reset $end
   $scope module sim_shell $end
    $var wire  1 7! clock $end
    $var wire  8 1! host_req_addr [7:0] $end
    $var wire  1 # host_req_deq $end
    $var wire  1 0! host_req_opcode $end
    $var wire  1 /! host_req_valid $end
    $var wire 32 2! host_req_value [31:0] $end
    $var wire 32 % host_resp_bits [31:0] $end
    $var wire  1 $ host_resp_valid $end
    $var wire 64 4! mem_rd_bits [63:0] $end
    $var wire  1 - mem_rd_ready $end
    $var wire  1 3! mem_rd_valid $end
    $var wire 64 ( mem_req_addr [63:0] $end
    $var wire  1 ' mem_req_opcode $end
    $var wire  1 & mem_req_valid $end
    $var wire 64 + mem_wr_bits [63:0] $end
    $var wire  1 * mem_wr_valid $end
    $var wire  1 7! mod_host_clock $end
    $var wire  8 1! mod_host_dpi_req_addr [7:0] $end
    $var wire  1 # mod_host_dpi_req_deq $end
    $var wire  1 0! mod_host_dpi_req_opcode $end
    $var wire  1 /! mod_host_dpi_req_valid $end
    $var wire 32 2! mod_host_dpi_req_value [31:0] $end
    $var wire 32 % mod_host_dpi_resp_bits [31:0] $end
    $var wire  1 $ mod_host_dpi_resp_valid $end
    $var wire  1 8! mod_host_reset $end
    $var wire  1 7! mod_mem_clock $end
    $var wire 64 4! mod_mem_dpi_rd_bits [63:0] $end
    $var wire  1 - mod_mem_dpi_rd_ready $end
    $var wire  1 3! mod_mem_dpi_rd_valid $end
    $var wire 64 ( mod_mem_dpi_req_addr [63:0] $end
    $var wire  8 ;! mod_mem_dpi_req_len [7:0] $end
    $var wire  1 ' mod_mem_dpi_req_opcode $end
    $var wire  1 & mod_mem_dpi_req_valid $end
    $var wire 64 + mod_mem_dpi_wr_bits [63:0] $end
    $var wire  1 * mod_mem_dpi_wr_valid $end
    $var wire  1 8! mod_mem_reset $end
    $var wire  1 9! mod_sim_clock $end
    $var wire  1 6! mod_sim_dpi_wait $end
    $var wire  1 8! mod_sim_reset $end
    $var wire  1 8! reset $end
    $var wire  1 9! sim_clock $end
    $var wire  1 6! sim_wait $end
    $scope module mod_host $end
     $var wire 32 <! ADDR_BITS [31:0] $end
     $var wire 32 =! DATA_BITS [31:0] $end
     $var wire  1 7! clock $end
     $var wire  8 1! dpi_req_addr [7:0] $end
     $var wire  1 # dpi_req_deq $end
     $var wire  1 0! dpi_req_opcode $end
     $var wire  1 /! dpi_req_valid $end
     $var wire 32 2! dpi_req_value [31:0] $end
     $var wire 32 % dpi_resp_bits [31:0] $end
     $var wire  1 $ dpi_resp_valid $end
     $var wire  1 8! reset $end
    $upscope $end
    $scope module mod_mem $end
     $var wire 32 >! ADDR_BITS [31:0] $end
     $var wire 32 >! DATA_BITS [31:0] $end
     $var wire 32 <! LEN_BITS [31:0] $end
     $var wire  1 7! clock $end
     $var wire 64 4! dpi_rd_bits [63:0] $end
     $var wire  1 - dpi_rd_ready $end
     $var wire  1 3! dpi_rd_valid $end
     $var wire 64 ( dpi_req_addr [63:0] $end
     $var wire  8 ;! dpi_req_len [7:0] $end
     $var wire  1 ' dpi_req_opcode $end
     $var wire  1 & dpi_req_valid $end
     $var wire 64 + dpi_wr_bits [63:0] $end
     $var wire  1 * dpi_wr_valid $end
     $var wire  1 8! reset $end
    $upscope $end
    $scope module mod_sim $end
     $var wire  1 9! clock $end
     $var wire  1 6! dpi_wait $end
     $var wire  1 8! reset $end
     $var wire  1 6! wait_reg $end
    $upscope $end
   $upscope $end
   $scope module vta_accel $end
    $var wire  1 7! ce_clock $end
    $var wire 32 0 ce_io_ecnt_0_bits [31:0] $end
    $var wire  1 / ce_io_ecnt_0_valid $end
    $var wire  1 * ce_io_finish $end
    $var wire  1 . ce_io_launch $end
    $var wire 64 4! ce_io_mem_rd_bits [63:0] $end
    $var wire  1 - ce_io_mem_rd_ready $end
    $var wire  1 3! ce_io_mem_rd_valid $end
    $var wire 64 ( ce_io_mem_req_addr [63:0] $end
    $var wire  1 ' ce_io_mem_req_opcode $end
    $var wire  1 & ce_io_mem_req_valid $end
    $var wire 64 + ce_io_mem_wr_bits [63:0] $end
    $var wire  1 * ce_io_mem_wr_valid $end
    $var wire 64 4 ce_io_ptrs_0 [63:0] $end
    $var wire 64 6 ce_io_ptrs_1 [63:0] $end
    $var wire 64 8 ce_io_ptrs_2 [63:0] $end
    $var wire 32 1 ce_io_vals_0 [31:0] $end
    $var wire 32 2 ce_io_vals_1 [31:0] $end
    $var wire 32 3 ce_io_vals_2 [31:0] $end
    $var wire  1 8! ce_reset $end
    $var wire  1 7! clock $end
    $var wire  8 1! io_host_req_addr [7:0] $end
    $var wire  1 # io_host_req_deq $end
    $var wire  1 0! io_host_req_opcode $end
    $var wire  1 /! io_host_req_valid $end
    $var wire 32 2! io_host_req_value [31:0] $end
    $var wire 32 % io_host_resp_bits [31:0] $end
    $var wire  1 $ io_host_resp_valid $end
    $var wire 64 4! io_mem_rd_bits [63:0] $end
    $var wire  1 - io_mem_rd_ready $end
    $var wire  1 3! io_mem_rd_valid $end
    $var wire 64 ( io_mem_req_addr [63:0] $end
    $var wire  1 ' io_mem_req_opcode $end
    $var wire  1 & io_mem_req_valid $end
    $var wire 64 + io_mem_wr_bits [63:0] $end
    $var wire  1 * io_mem_wr_valid $end
    $var wire  1 8! reset $end
    $var wire  1 7! rf_clock $end
    $var wire 32 0 rf_io_ecnt_0_bits [31:0] $end
    $var wire  1 / rf_io_ecnt_0_valid $end
    $var wire  1 * rf_io_finish $end
    $var wire  8 1! rf_io_host_req_addr [7:0] $end
    $var wire  1 # rf_io_host_req_deq $end
    $var wire  1 0! rf_io_host_req_opcode $end
    $var wire  1 /! rf_io_host_req_valid $end
    $var wire 32 2! rf_io_host_req_value [31:0] $end
    $var wire 32 % rf_io_host_resp_bits [31:0] $end
    $var wire  1 $ rf_io_host_resp_valid $end
    $var wire  1 . rf_io_launch $end
    $var wire 64 4 rf_io_ptrs_0 [63:0] $end
    $var wire 64 6 rf_io_ptrs_1 [63:0] $end
    $var wire 64 8 rf_io_ptrs_2 [63:0] $end
    $var wire 32 1 rf_io_vals_0 [31:0] $end
    $var wire 32 2 rf_io_vals_1 [31:0] $end
    $var wire 32 3 rf_io_vals_2 [31:0] $end
    $var wire  1 8! rf_reset $end
    $scope module ce $end
     $var wire  1 7! clock $end
     $var wire 32 l cnt [31:0] $end
     $var wire 32 0 cycles [31:0] $end
     $var wire  1 7! dot_clock $end
     $var wire  8 D dot_io_arrA_0 [7:0] $end
     $var wire  8 E dot_io_arrA_1 [7:0] $end
     $var wire  8 F dot_io_arrA_2 [7:0] $end
     $var wire  8 G dot_io_arrA_3 [7:0] $end
     $var wire  8 H dot_io_arrA_4 [7:0] $end
     $var wire  8 I dot_io_arrA_5 [7:0] $end
     $var wire  8 J dot_io_arrA_6 [7:0] $end
     $var wire  8 K dot_io_arrA_7 [7:0] $end
     $var wire  8 L dot_io_arrB_0 [7:0] $end
     $var wire  8 M dot_io_arrB_1 [7:0] $end
     $var wire  8 N dot_io_arrB_2 [7:0] $end
     $var wire  8 O dot_io_arrB_3 [7:0] $end
     $var wire  8 P dot_io_arrB_4 [7:0] $end
     $var wire  8 Q dot_io_arrB_5 [7:0] $end
     $var wire  8 R dot_io_arrB_6 [7:0] $end
     $var wire  8 S dot_io_arrB_7 [7:0] $end
     $var wire 23 U dot_io_res [22:0] $end
     $var wire  1 C dot_io_start $end
     $var wire  1 T dot_io_valid $end
     $var wire  1 8! dot_reset $end
     $var wire 32 @! initvar [31:0] $end
     $var wire 32 0 io_ecnt_0_bits [31:0] $end
     $var wire  1 / io_ecnt_0_valid $end
     $var wire  1 * io_finish $end
     $var wire  1 . io_launch $end
     $var wire 64 4! io_mem_rd_bits [63:0] $end
     $var wire  1 - io_mem_rd_ready $end
     $var wire  1 3! io_mem_rd_valid $end
     $var wire 64 ( io_mem_req_addr [63:0] $end
     $var wire  1 ' io_mem_req_opcode $end
     $var wire  1 & io_mem_req_valid $end
     $var wire 64 + io_mem_wr_bits [63:0] $end
     $var wire  1 * io_mem_wr_valid $end
     $var wire 64 4 io_ptrs_0 [63:0] $end
     $var wire 64 6 io_ptrs_1 [63:0] $end
     $var wire 64 8 io_ptrs_2 [63:0] $end
     $var wire 32 1 io_vals_0 [31:0] $end
     $var wire 32 2 io_vals_1 [31:0] $end
     $var wire 32 3 io_vals_2 [31:0] $end
     $var wire  1 7! overallAccum_clock $end
     $var wire 63 X overallAccum_io_in [62:0] $end
     $var wire  1 * overallAccum_io_ready $end
     $var wire  1 V overallAccum_io_rst $end
     $var wire 64 + overallAccum_io_sum [63:0] $end
     $var wire  1 W overallAccum_io_valid $end
     $var wire  1 8! overallAccum_reset $end
     $var wire 64 m raddr1 [63:0] $end
     $var wire 64 o raddr2 [63:0] $end
     $var wire 32 \ reg1_0 [31:0] $end
     $var wire 32 ] reg1_1 [31:0] $end
     $var wire 32 ^ reg1_2 [31:0] $end
     $var wire 32 _ reg1_3 [31:0] $end
     $var wire 32 ` reg1_4 [31:0] $end
     $var wire 32 a reg1_5 [31:0] $end
     $var wire 32 b reg1_6 [31:0] $end
     $var wire 32 c reg1_7 [31:0] $end
     $var wire 32 d reg2_0 [31:0] $end
     $var wire 32 e reg2_1 [31:0] $end
     $var wire 32 f reg2_2 [31:0] $end
     $var wire 32 g reg2_3 [31:0] $end
     $var wire 32 h reg2_4 [31:0] $end
     $var wire 32 i reg2_5 [31:0] $end
     $var wire 32 j reg2_6 [31:0] $end
     $var wire 32 k reg2_7 [31:0] $end
     $var wire  1 8! reset $end
     $var wire  8 [ shift [7:0] $end
     $var wire 278 s shiftReg [277:0] $end
     $var wire  3 Z state [2:0] $end
     $var wire  1 W validReg $end
     $var wire 64 q waddr [63:0] $end
     $scope module dot $end
      $var wire 23 '! accum_0 [22:0] $end
      $var wire 23 (! accum_1 [22:0] $end
      $var wire 23 )! accum_2 [22:0] $end
      $var wire 23 *! accum_3 [22:0] $end
      $var wire 23 +! accum_4 [22:0] $end
      $var wire 23 ,! accum_5 [22:0] $end
      $var wire 23 -! accum_6 [22:0] $end
      $var wire 23 U accum_7 [22:0] $end
      $var wire  1 7! clock $end
      $var wire  3 .! cnt [2:0] $end
      $var wire 32 A! initvar [31:0] $end
      $var wire  8 D io_arrA_0 [7:0] $end
      $var wire  8 E io_arrA_1 [7:0] $end
      $var wire  8 F io_arrA_2 [7:0] $end
      $var wire  8 G io_arrA_3 [7:0] $end
      $var wire  8 H io_arrA_4 [7:0] $end
      $var wire  8 I io_arrA_5 [7:0] $end
      $var wire  8 J io_arrA_6 [7:0] $end
      $var wire  8 K io_arrA_7 [7:0] $end
      $var wire  8 L io_arrB_0 [7:0] $end
      $var wire  8 M io_arrB_1 [7:0] $end
      $var wire  8 N io_arrB_2 [7:0] $end
      $var wire  8 O io_arrB_3 [7:0] $end
      $var wire  8 P io_arrB_4 [7:0] $end
      $var wire  8 Q io_arrB_5 [7:0] $end
      $var wire  8 R io_arrB_6 [7:0] $end
      $var wire  8 S io_arrB_7 [7:0] $end
      $var wire 23 U io_res [22:0] $end
      $var wire  1 C io_start $end
      $var wire  1 T io_valid $end
      $var wire 16 } product_0 [15:0] $end
      $var wire 16 ~ product_1 [15:0] $end
      $var wire 16 !! product_2 [15:0] $end
      $var wire 16 "! product_3 [15:0] $end
      $var wire 16 #! product_4 [15:0] $end
      $var wire 16 $! product_5 [15:0] $end
      $var wire 16 %! product_6 [15:0] $end
      $var wire 16 &! product_7 [15:0] $end
      $var wire  1 8! reset $end
      $var wire  2 | state [1:0] $end
     $upscope $end
     $scope module overallAccum $end
      $var wire  1 7! clock $end
      $var wire 32 B! initvar [31:0] $end
      $var wire 63 X io_in [62:0] $end
      $var wire  1 * io_ready $end
      $var wire  1 V io_rst $end
      $var wire 64 + io_sum [63:0] $end
      $var wire  1 W io_valid $end
      $var wire  1 * ready $end
      $var wire 64 + reg$ [63:0] $end
      $var wire  1 8! reset $end
     $upscope $end
    $upscope $end
    $scope module rf $end
     $var wire  1 7! clock $end
     $var wire 32 ?! initvar [31:0] $end
     $var wire 32 0 io_ecnt_0_bits [31:0] $end
     $var wire  1 / io_ecnt_0_valid $end
     $var wire  1 * io_finish $end
     $var wire  8 1! io_host_req_addr [7:0] $end
     $var wire  1 # io_host_req_deq $end
     $var wire  1 0! io_host_req_opcode $end
     $var wire  1 /! io_host_req_valid $end
     $var wire 32 2! io_host_req_value [31:0] $end
     $var wire 32 % io_host_resp_bits [31:0] $end
     $var wire  1 $ io_host_resp_valid $end
     $var wire  1 . io_launch $end
     $var wire 64 4 io_ptrs_0 [63:0] $end
     $var wire 64 6 io_ptrs_1 [63:0] $end
     $var wire 64 8 io_ptrs_2 [63:0] $end
     $var wire 32 1 io_vals_0 [31:0] $end
     $var wire 32 2 io_vals_1 [31:0] $end
     $var wire 32 3 io_vals_2 [31:0] $end
     $var wire 32 % rdata [31:0] $end
     $var wire 32 : reg_0 [31:0] $end
     $var wire 32 ; reg_1 [31:0] $end
     $var wire 32 A reg_10 [31:0] $end
     $var wire 32 B reg_11 [31:0] $end
     $var wire 32 1 reg_2 [31:0] $end
     $var wire 32 2 reg_3 [31:0] $end
     $var wire 32 3 reg_4 [31:0] $end
     $var wire 32 < reg_5 [31:0] $end
     $var wire 32 = reg_6 [31:0] $end
     $var wire 32 > reg_7 [31:0] $end
     $var wire 32 ? reg_8 [31:0] $end
     $var wire 32 @ reg_9 [31:0] $end
     $var wire  1 8! reset $end
     $var wire  1 $ state $end
    $upscope $end
   $upscope $end
  $upscope $end
 $upscope $end
$enddefinitions $end


#0
0#
0$
b00000011001110101111000011000001 %
0&
0'
b1001111110110110100101010000011011011111111100110111101001111110 (
1*
b1011011110010101001011011100011101111100001000111111111011110011 +
0-
1.
0/
b10000100010100111000101111101101 0
b10010011011011111110001101110010 1
b11111111010001100110011001100010 2
b10000100101000110000000010001110 3
b0000011110110010001011100100100100110010001111000000000100110100 4
b0111111001101000011110101010110011000001110011010010110101011101 6
b1110100000111011100100011100000001100000101000000111101110011100 8
b11111111100001100111011011010111 :
b10101111110110001101100011100011 ;
b01101101101100111000100101001110 <
b00110010001111000000000100110100 =
b00000111101100100010111001001001 >
b11000001110011010010110101011101 ?
b01111110011010000111101010101100 @
b01100000101000000111101110011100 A
b11101000001110111001000111000000 B
0C
b00010001 D
b00101001 E
b10100100 F
b11000011 G
b01111101 H
b11110101 I
b11110001 J
b00111011 K
b00011101 L
b10000001 M
b10010000 N
b11100000 O
b01101001 P
b10011110 Q
b00001101 R
b01000010 S
0T
b11100001001000001111011 U
0V
1W
b011010010000001010100111100100001100011111100000100101110100100 X
b000 Z
b01110010 [
b11111111100111100111011100010001 \
b01110111000111111000111100101001 ]
b11111001000000111011001010100100 ^
b11000101110001011100001011000011 _
b01000001010001010101100001111101 `
b01101010110011110111010011110101 a
b11100111101010001011110111110001 b
b01100101100010011010101000111011 c
b01010100101110111111101100011101 d
b01110101101100000101001010000001 e
b01011000001011100000011110010000 f
b10110110001000111110101011100000 g
b00011000110101000001110101101001 h
b01111100011100000110011010011110 i
b11100101100100101010111100001101 j
b10001110011001000111111101000010 k
b00001011110110000011111000000010 l
b0111111100011101111011010110111000000111010111110111010110101001 m
b0100000110111001000000110001010100001010111000100010010001010111 o
b1001111110110110100101010000011011011111111100110111101001111110 q
b00010000011010001011010001101100000101101000000010010100101101010111001010111010110111001000001011101010011111111110101110010111011111111110111011110110111111101000110110011100010101000110010010101010111011001001010011010010000001010100111100100001100011111100000100101110100100 s
b11 |
b0111011111001111 }
b1100010010101000 ~
b1010001001101010 !!
b1000111001001001 "!
b0111111100001011 #!
b1000001010111100 $!
b1100000010011000 %!
b0011100110101110 &!
b11000001110100000100010 '!
b10000011010110011011111 (!
b10101101010000010000001 )!
b00000010111001111010100 *!
b11000101101010100001010 +!
b10101110100000011100111 ,!
b11110111011100010011101 -!
b001 .!
0/!
00!
b00000000 1!
b00000000000000000000000000000000 2!
03!
b0000000000000000000000000000000000000000000000000000000000000000 4!
06!
07!
18!
09!
0:!
b00000000 ;!
b00000000000000000000000000001000 <!
b00000000000000000000000000100000 =!
b00000000000000000000000001000000 >!
b00000000000000000000000000000000 ?!
b00000000000000000000000000000000 @!
b00000000000000000000000000000000 A!
b00000000000000000000000000000000 B!
#1
b00000000000000000000000000000000 %
b1110100000111011100100011100000001100000101000000111101110011100 (
b0000000000000000000000000000000000000000000000000000000000000000 +
0.
b00000000000000000000000000000000 0
b00000000000000000000000000000000 1
b00000000000000000000000000000000 2
b00000000000000000000000000000000 3
b0000000000000000000000000000000000000000000000000000000000000000 4
b0000000000000000000000000000000000000000000000000000000000000000 6
b0000000000000000000000000000000000000000000000000000000000000000 8
b00000000000000000000000000000000 :
b00000000000000000000000000000000 ;
b00000000000000000000000000000000 <
b00000000000000000000000000000000 =
b00000000000000000000000000000000 >
b00000000000000000000000000000000 ?
b00000000000000000000000000000000 @
b00000000000000000000000000000000 A
b00000000000000000000000000000000 B
b00000000000000000000000 U
0W
b000000000000000000000000000000000000000000000000000000000000000 X
b00000000 [
b00000000000000000000000000000000 l
b0000011110110010001011100100100100110010001111000000000100110100 m
b0111111001101000011110101010110011000001110011010010110101011101 o
b1110100000111011100100011100000001100000101000000111101110011100 q
b00000000000000000000000000000000000000000000000000000000000000000000000000000000000000000000000000000000000000000000000000000000000000000000011100001001000001111011000000000000000000000000000000000000000000000000000000000000000000000000000000000000000000000000000000000000000000 s
b00 |
b0000000000000000 }
b0000000000000000 ~
b0000000000000000 !!
b0000000000000000 "!
b0000000000000000 #!
b0000000000000000 $!
b0000000000000000 %!
b0000000000000000 &!
b00000000000000000000000 '!
b00000000000000000000000 (!
b00000000000000000000000 )!
b00000000000000000000000 *!
b00000000000000000000000 +!
b00000000000000000000000 ,!
b00000000000000000000000 -!
b000 .!
17!
#2
07!
#3
b0000000000000000000000000000000000000000000000000000000000000000 (
0*
b0000000000000000000000000000000000000000000000000000000000000000 m
b0000000000000000000000000000000000000000000000000000000000000000 o
b0000000000000000000000000000000000000000000000000000000000000000 q
b00000000000000000000000000000000000000000000000000000000000000000000000000000000000000000000000000000000000000000000000000000000000000000000000000000000000000000000000000000000000000000000000000000000000000000000000000000000000000000000000000000000000000000000000000000000000000 s
17!
#4
07!
#5
17!
#6
07!
#7
17!
#8
07!
#9
17!
#10
07!
#11
17!
#12
07!
#13
17!
#14
07!
#15
17!
#16
07!
#17
17!
#18
07!
#19
17!
#20
07!
08!
#21
b0000000111101101 }
b0001010010101001 ~
b0101110001000000 !!
b1010101010100000 "!
b0011001101000101 #!
b1001011100110110 $!
b0000110000111101 %!
b0000111100110110 &!
16!
17!
19!
1:!
#22
06!
07!
09!
0:!
#23
1#
b00000000000111100110110 U
b00000000000000111101101 '!
b00000000001010010101001 (!
b00000000101110001000000 )!
b00000001010101010100000 *!
b00000000011001101000101 +!
b00000001001011100110110 ,!
b00000000000110000111101 -!
1/!
10!
b00001000 1!
b1101111010101101101111101110111111011110101011011011111011101111 4!
17!
19!
#24
07!
09!
#25
b00000000001101101110011 U
b000000000000000000000000000000000000000000000000000111100110110 X
b00000000000000000000000000000000000000000000000000000000000000000000000000000000000000000000000000000000000000000000000000000000000000000000000000000000000000000000000000000000000000000000000000000000000000000000000000000000000000000000000000000000000000000000000000111100110110 s
b00000000001011010010110 (!
b00000000111000011101001 )!
b00000010000011011100000 *!
b00000001101110111100101 +!
b00000001100101001111011 ,!
b00000001010001101110011 -!
17!
19!
#26
07!
09!
#27
b00000001011001010101001 U
b000000000000000000000000000000000000000000000000001101101110011 X
b00000000000000000000000000000000000000000000000000000000000000000000000000000000000000000000000000000000000000000000000000000000000000000000000000000000000000000000000000000000000000000000000000000000000000000000000000000000000000000000000000000000000000000000000001101101110011 s
b00000000111001011010110 )!
b00000010001101110001001 *!
b00000010011101000100101 +!
b00000010111010100011011 ,!
b00000001101011010111000 -!
b00001100 1!
b00000000000000000000000000000001 2!
17!
19!
#28
07!
09!
#29
b00000000000000000000000000000001 2
b00000001110010111101110 U
b000000000000000000000000000000000000000000000001011001010101001 X
b00000000000000000000000000000000000000000000000000000000000000000000000000000000000000000000000000000000000000000000000000000000000000000000000000000000000000000000000000000000000000000000000000000000000000000000000000000000000000000000000000000000000000000000001011001010101001 s
b00000010001110101110110 *!
b00000010100111011001110 +!
b00000011101000101011011 ,!
b00000011000000101011000 -!
b00011000 1!
b10000111111010100100110111000000 2!
17!
19!
#30
07!
09!
#31
b0000000000000000000000000000000010000111111010100100110111000000 4
b10000111111010100100110111000000 =
b00000011001000010001110 U
b000000000000000000000000000000000000000000000001110010111101110 X
b00000000000000000000000000000000000000000000000000000000000000000000000000000000000000000000000000000000000000000000000000000000000000000000000000000000000000000000000000000000000000000000000000000000000000000000000000000000000000000000000000000000000000000000001110010111101110 s
b00000010101000010111011 +!
b00000011110011000000100 ,!
b00000011101110110011000 -!
b00011100 1!
b00000000000000000111111111101000 2!
17!
19!
#32
07!
09!
#33
b0000000000000000011111111110100010000111111010100100110111000000 4
b00000000000000000111111111101000 >
b00000011110110011001110 U
b000000000000000000000000000000000000000000000011001000010001110 X
b0000000000000000000000000000000010000111111010100100110111000000 m
b00000000000000000000000000000000000000000000000000000000000000000000000000000000000000000000000000000000000000000000000000000000000000000000000000000000000000000000000000000000000000000000000000000000000000000000000000000000000000000000000000000000000000000000011001000010001110 s
b00000011110011111110001 ,!
b00000011111001001000001 -!
b00100000 1!
b10000111111010100100111001000000 2!
17!
19!
#34
07!
09!
#35
b0000000000000000000000000000000010000111111010100100111001000000 6
b10000111111010100100111001000000 ?
b00000100000000101110111 U
b000000000000000000000000000000000000000000000011110110011001110 X
b0000000000000000011111111110100010000111111010100100110111000000 m
b00000000000000000000000000000000000000000000000000000000000000000000000000000000000000000000000000000000000000000000000000000000000000000000000000000000000000000000000000000000000000000000000000000000000000000000000000000000000000000000000000000000000000000000011110110011001110 s
b00000011111010000101110 -!
b00100100 1!
b00000000000000000111111111101000 2!
17!
19!
#36
07!
09!
#37
b0000000000000000011111111110100010000111111010100100111001000000 6
b00000000000000000111111111101000 @
b00000100000001101100100 U
b000000000000000000000000000000000000000000000100000000101110111 X
b0000000000000000000000000000000010000111111010100100111001000000 o
b00000000000000000000000000000000000000000000000000000000000000000000000000000000000000000000000000000000000000000000000000000000000000000000000000000000000000000000000000000000000000000000000000000000000000000000000000000000000000000000000000000000000000000000100000000101110111 s
b00101000 1!
b10000111111010100101000101000000 2!
17!
19!
#38
07!
09!
#39
b0000000000000000000000000000000010000111111010100101000101000000 8
b10000111111010100101000101000000 A
b000000000000000000000000000000000000000000000100000001101100100 X
b0000000000000000011111111110100010000111111010100100111001000000 o
b00000000000000000000000000000000000000000000000000000000000000000000000000000000000000000000000000000000000000000000000000000000000000000000000000000000000000000000000000000000000000000000000000000000000000000000000000000000000000000000000000000000000000000000100000001101100100 s
b00101100 1!
b00000000000000000111111111101000 2!
17!
19!
#40
07!
09!
#41
b0000000000000000000000000000000010000111111010100101000101000000 (
b0000000000000000011111111110100010000111111010100101000101000000 8
b00000000000000000111111111101000 B
b0000000000000000000000000000000010000111111010100101000101000000 q
b00000000 1!
b00000000000000000000000000000001 2!
17!
19!
#42
07!
09!
#43
b0000000000000000011111111110100010000111111010100101000101000000 (
1.
b00000000000000000000000000000001 :
b0000000000000000011111111110100010000111111010100101000101000000 q
b00000000000000000000000000000000 2!
17!
19!
#44
07!
09!
#45
1&
b0000000000000000011111111110100010000111111010100100110111000000 (
0.
b00000000000000000000000000000000 :
b001 Z
b00010000 1!
b00000000000000000000000000000001 2!
17!
19!
#46
07!
09!
#47
0&
b0000000000000000011111111110100010000111111010100101000101000000 (
1-
b00000000000000000000000000000001 0
b00000000000000000000000000000001 3
1V
b010 Z
b00000000000000000000000000000000 2!
17!
19!
#48
07!
09!
#49
b00000000000000000000000000000010 0
b00000000000000000000000000000000 3
0V
b00010100 1!
b00000000000000000000000000000001 2!
13!
b0111110010000000000010110010100100010000001111000110001000010110 4!
17!
19!
#50
07!
09!
#51
1&
b0000000000000000011111111110100010000111111010100100111001000000 (
0-
b00000000000000000000000000000011 0
b00000000000000000000000000000001 <
b00010110 D
b01100010 E
b00111100 F
b00010000 G
b00101001 H
b00001011 I
b10000000 J
b01111100 K
b011 Z
b00000000000000000000000000010110 \
b00000000000000000000000001100010 ]
b00000000000000000000000000111100 ^
b00000000000000000000000000010000 _
b00000000000000000000000000101001 `
b00000000000000000000000000001011 a
b00000000000000000000000010000000 b
b00000000000000000000000001111100 c
b00000000000000000000000000000000 2!
03!
b1101111010101101101111101110111111011110101011011011111011101111 4!
17!
19!
#52
07!
09!
#53
0&
b0000000000000000011111111110100010000111111010100101000101000000 (
1-
b00000000000000000000000000000100 0
b00000000000000000000000000000000 <
b100 Z
b0000001001111110 }
b0011000101100010 ~
b0010000111000000 !!
b0000111000000000 "!
b0001000011010001 #!
b0000011011001010 $!
b0000011010000000 %!
b0001111111111000 &!
00!
b00000000 1!
17!
19!
#54
07!
09!
#55
0#
1$
b00000000000000000000000000000101 0
b00000100001010000100110 U
b00000000000001001111110 '!
b00000000011001101001111 (!
b00000000011100001010110 )!
b00000001000000011010110 *!
b00000010010111001000111 +!
b00000010101011110000101 ,!
b00000011110111001110001 -!
0/!
10!
b10101101 1!
b00000000000000000000101110101101 2!
13!
b0011110101001010010000010110001100110110010011100010001101100100 4!
17!
19!
#56
07!
09!
#57
0$
1&
1'
0-
b00000000000000000000000000000110 0
b01100100 L
b00100011 M
b01001110 N
b00110110 O
b01100011 P
b01000001 Q
b01001010 R
b00111101 S
b00000100000111001101001 U
b000000000000000000000000000000000000000000000100001010000100110 X
b101 Z
b00000000000000000000000001100100 d
b00000000000000000000000000100011 e
b00000000000000000000000001001110 f
b00000000000000000000000000110110 g
b00000000000000000000000001100011 h
b00000000000000000000000001000001 i
b00000000000000000000000001001010 j
b00000000000000000000000000111101 k
b00000000000000000000000000000000000000000000000000000000000000000000000000000000000000000000000000000000000000000000000000000000000000000000000000000000000000000000000000000000000000000000000000000000000000000000000000000000000000000000000000000000000000000000100001010000100110 s
b00000000011001111100000 (!
b00000000101010100001111 )!
b00000000100011001010110 *!
b00000001001000110100111 +!
b00000010011010100010001 ,!
b00000010101111000000101 -!
03!
b1101111010101101101111101110111111011110101011011011111011101111 4!
17!
19!
#58
07!
09!
#59
0&
0'
1/
b00000000000000000000000000000111 0
1C
b00000010111110111111101 U
b000000000000000000000000000000000000000000000100000111001101001 X
b110 Z
b00000000000000000000000000000000000000000000000000000000000000000000000000000000000000000000000000000000000000000000000000000000000000000000000000000000000000000000000000000000000000000000000000000000000000000000000000000000000000000000000000000000000000000000100000111001101001 s
b0000100010011000 }
b0000110101100110 ~
b0001001001001000 !!
b0000001101100000 "!
b0000111111011011 #!
b0000001011001011 $!
b0010010100000000 %!
b0001110110001100 &!
b00000000101010110100000 )!
b00000000110001100001111 *!
b00000000101011100100111 +!
b00000001001100001110001 ,!
b00000010011101110010001 -!
17!
19!
#60
07!
09!
