hardware/chisel/build/verilator/TestAccel.vcd
$version Generated by VerilatedVcd $end
$date Fri Jul 12 12:34:51 2019
 $end
$timescale   1ns $end

 $scope module TOP $end
  $var wire  1 L clock $end
  $var wire  1 M reset $end
  $var wire  1 N sim_clock $end
  $var wire  1 O sim_wait $end
  $scope module TestAccel $end
   $var wire  1 L clock $end
   $var wire  1 M reset $end
   $var wire  1 N sim_clock $end
   $var wire  1 L sim_shell_clock $end
   $var wire  8 F sim_shell_host_req_addr [7:0] $end
   $var wire  1 # sim_shell_host_req_deq $end
   $var wire  1 E sim_shell_host_req_opcode $end
   $var wire  1 D sim_shell_host_req_valid $end
   $var wire 32 G sim_shell_host_req_value [31:0] $end
   $var wire 32 % sim_shell_host_resp_bits [31:0] $end
   $var wire  1 $ sim_shell_host_resp_valid $end
   $var wire 64 I sim_shell_mem_rd_bits [63:0] $end
   $var wire  1 - sim_shell_mem_rd_ready $end
   $var wire  1 H sim_shell_mem_rd_valid $end
   $var wire 64 ( sim_shell_mem_req_addr [63:0] $end
   $var wire  1 ' sim_shell_mem_req_opcode $end
   $var wire  1 & sim_shell_mem_req_valid $end
   $var wire 64 + sim_shell_mem_wr_bits [63:0] $end
   $var wire  1 * sim_shell_mem_wr_valid $end
   $var wire  1 M sim_shell_reset $end
   $var wire  1 N sim_shell_sim_clock $end
   $var wire  1 K sim_shell_sim_wait $end
   $var wire  1 O sim_wait $end
   $var wire  1 L vta_accel_clock $end
   $var wire  8 F vta_accel_io_host_req_addr [7:0] $end
   $var wire  1 # vta_accel_io_host_req_deq $end
   $var wire  1 E vta_accel_io_host_req_opcode $end
   $var wire  1 D vta_accel_io_host_req_valid $end
   $var wire 32 G vta_accel_io_host_req_value [31:0] $end
   $var wire 32 % vta_accel_io_host_resp_bits [31:0] $end
   $var wire  1 $ vta_accel_io_host_resp_valid $end
   $var wire 64 I vta_accel_io_mem_rd_bits [63:0] $end
   $var wire  1 - vta_accel_io_mem_rd_ready $end
   $var wire  1 H vta_accel_io_mem_rd_valid $end
   $var wire 64 ( vta_accel_io_mem_req_addr [63:0] $end
   $var wire  1 ' vta_accel_io_mem_req_opcode $end
   $var wire  1 & vta_accel_io_mem_req_valid $end
   $var wire 64 + vta_accel_io_mem_wr_bits [63:0] $end
   $var wire  1 * vta_accel_io_mem_wr_valid $end
   $var wire  1 M vta_accel_reset $end
   $scope module sim_shell $end
    $var wire  1 L clock $end
    $var wire  8 F host_req_addr [7:0] $end
    $var wire  1 # host_req_deq $end
    $var wire  1 E host_req_opcode $end
    $var wire  1 D host_req_valid $end
    $var wire 32 G host_req_value [31:0] $end
    $var wire 32 % host_resp_bits [31:0] $end
    $var wire  1 $ host_resp_valid $end
    $var wire 64 I mem_rd_bits [63:0] $end
    $var wire  1 - mem_rd_ready $end
    $var wire  1 H mem_rd_valid $end
    $var wire 64 ( mem_req_addr [63:0] $end
    $var wire  1 ' mem_req_opcode $end
    $var wire  1 & mem_req_valid $end
    $var wire 64 + mem_wr_bits [63:0] $end
    $var wire  1 * mem_wr_valid $end
    $var wire  1 L mod_host_clock $end
    $var wire  8 F mod_host_dpi_req_addr [7:0] $end
    $var wire  1 # mod_host_dpi_req_deq $end
    $var wire  1 E mod_host_dpi_req_opcode $end
    $var wire  1 D mod_host_dpi_req_valid $end
    $var wire 32 G mod_host_dpi_req_value [31:0] $end
    $var wire 32 % mod_host_dpi_resp_bits [31:0] $end
    $var wire  1 $ mod_host_dpi_resp_valid $end
    $var wire  1 M mod_host_reset $end
    $var wire  1 L mod_mem_clock $end
    $var wire 64 I mod_mem_dpi_rd_bits [63:0] $end
    $var wire  1 - mod_mem_dpi_rd_ready $end
    $var wire  1 H mod_mem_dpi_rd_valid $end
    $var wire 64 ( mod_mem_dpi_req_addr [63:0] $end
    $var wire  8 P mod_mem_dpi_req_len [7:0] $end
    $var wire  1 ' mod_mem_dpi_req_opcode $end
    $var wire  1 & mod_mem_dpi_req_valid $end
    $var wire 64 + mod_mem_dpi_wr_bits [63:0] $end
    $var wire  1 * mod_mem_dpi_wr_valid $end
    $var wire  1 M mod_mem_reset $end
    $var wire  1 N mod_sim_clock $end
    $var wire  1 K mod_sim_dpi_wait $end
    $var wire  1 M mod_sim_reset $end
    $var wire  1 M reset $end
    $var wire  1 N sim_clock $end
    $var wire  1 K sim_wait $end
    $scope module mod_host $end
     $var wire 32 Q ADDR_BITS [31:0] $end
     $var wire 32 R DATA_BITS [31:0] $end
     $var wire  1 L clock $end
     $var wire  8 F dpi_req_addr [7:0] $end
     $var wire  1 # dpi_req_deq $end
     $var wire  1 E dpi_req_opcode $end
     $var wire  1 D dpi_req_valid $end
     $var wire 32 G dpi_req_value [31:0] $end
     $var wire 32 % dpi_resp_bits [31:0] $end
     $var wire  1 $ dpi_resp_valid $end
     $var wire  1 M reset $end
    $upscope $end
    $scope module mod_mem $end
     $var wire 32 S ADDR_BITS [31:0] $end
     $var wire 32 S DATA_BITS [31:0] $end
     $var wire 32 Q LEN_BITS [31:0] $end
     $var wire  1 L clock $end
     $var wire 64 I dpi_rd_bits [63:0] $end
     $var wire  1 - dpi_rd_ready $end
     $var wire  1 H dpi_rd_valid $end
     $var wire 64 ( dpi_req_addr [63:0] $end
     $var wire  8 P dpi_req_len [7:0] $end
     $var wire  1 ' dpi_req_opcode $end
     $var wire  1 & dpi_req_valid $end
     $var wire 64 + dpi_wr_bits [63:0] $end
     $var wire  1 * dpi_wr_valid $end
     $var wire  1 M reset $end
    $upscope $end
    $scope module mod_sim $end
     $var wire  1 N clock $end
     $var wire  1 K dpi_wait $end
     $var wire  1 M reset $end
     $var wire  1 K wait_reg $end
    $upscope $end
   $upscope $end
   $scope module vta_accel $end
    $var wire  1 L ce_clock $end
    $var wire 32 1 ce_io_ecnt_0_bits [31:0] $end
    $var wire  1 0 ce_io_ecnt_0_valid $end
    $var wire  1 / ce_io_finish $end
    $var wire  1 . ce_io_launch $end
    $var wire 64 I ce_io_mem_rd_bits [63:0] $end
    $var wire  1 - ce_io_mem_rd_ready $end
    $var wire  1 H ce_io_mem_rd_valid $end
    $var wire 64 ( ce_io_mem_req_addr [63:0] $end
    $var wire  1 ' ce_io_mem_req_opcode $end
    $var wire  1 & ce_io_mem_req_valid $end
    $var wire 64 + ce_io_mem_wr_bits [63:0] $end
    $var wire  1 * ce_io_mem_wr_valid $end
    $var wire 64 4 ce_io_ptrs_0 [63:0] $end
    $var wire 64 6 ce_io_ptrs_1 [63:0] $end
    $var wire 32 2 ce_io_vals_0 [31:0] $end
    $var wire 32 3 ce_io_vals_1 [31:0] $end
    $var wire  1 M ce_reset $end
    $var wire  1 L clock $end
    $var wire  8 F io_host_req_addr [7:0] $end
    $var wire  1 # io_host_req_deq $end
    $var wire  1 E io_host_req_opcode $end
    $var wire  1 D io_host_req_valid $end
    $var wire 32 G io_host_req_value [31:0] $end
    $var wire 32 % io_host_resp_bits [31:0] $end
    $var wire  1 $ io_host_resp_valid $end
    $var wire 64 I io_mem_rd_bits [63:0] $end
    $var wire  1 - io_mem_rd_ready $end
    $var wire  1 H io_mem_rd_valid $end
    $var wire 64 ( io_mem_req_addr [63:0] $end
    $var wire  1 ' io_mem_req_opcode $end
    $var wire  1 & io_mem_req_valid $end
    $var wire 64 + io_mem_wr_bits [63:0] $end
    $var wire  1 * io_mem_wr_valid $end
    $var wire  1 M reset $end
    $var wire  1 L rf_clock $end
    $var wire 32 1 rf_io_ecnt_0_bits [31:0] $end
    $var wire  1 0 rf_io_ecnt_0_valid $end
    $var wire  1 / rf_io_finish $end
    $var wire  8 F rf_io_host_req_addr [7:0] $end
    $var wire  1 # rf_io_host_req_deq $end
    $var wire  1 E rf_io_host_req_opcode $end
    $var wire  1 D rf_io_host_req_valid $end
    $var wire 32 G rf_io_host_req_value [31:0] $end
    $var wire 32 % rf_io_host_resp_bits [31:0] $end
    $var wire  1 $ rf_io_host_resp_valid $end
    $var wire  1 . rf_io_launch $end
    $var wire 64 4 rf_io_ptrs_0 [63:0] $end
    $var wire 64 6 rf_io_ptrs_1 [63:0] $end
    $var wire 32 2 rf_io_vals_0 [31:0] $end
    $var wire 32 3 rf_io_vals_1 [31:0] $end
    $var wire  1 M rf_reset $end
    $scope module ce $end
     $var wire  1 L clock $end
     $var wire 32 ? cnt [31:0] $end
     $var wire 32 1 cycles [31:0] $end
     $var wire 32 U initvar [31:0] $end
     $var wire 32 1 io_ecnt_0_bits [31:0] $end
     $var wire  1 0 io_ecnt_0_valid $end
     $var wire  1 / io_finish $end
     $var wire  1 . io_launch $end
     $var wire 64 I io_mem_rd_bits [63:0] $end
     $var wire  1 - io_mem_rd_ready $end
     $var wire  1 H io_mem_rd_valid $end
     $var wire 64 ( io_mem_req_addr [63:0] $end
     $var wire  1 ' io_mem_req_opcode $end
     $var wire  1 & io_mem_req_valid $end
     $var wire 64 + io_mem_wr_bits [63:0] $end
     $var wire  1 * io_mem_wr_valid $end
     $var wire 64 4 io_ptrs_0 [63:0] $end
     $var wire 64 6 io_ptrs_1 [63:0] $end
     $var wire 32 2 io_vals_0 [31:0] $end
     $var wire 32 3 io_vals_1 [31:0] $end
     $var wire 64 @ raddr [63:0] $end
     $var wire 64 + reg$ [63:0] $end
     $var wire  1 M reset $end
     $var wire  3 > state [2:0] $end
     $var wire 64 B waddr [63:0] $end
    $upscope $end
    $scope module rf $end
     $var wire  1 L clock $end
     $var wire 32 T initvar [31:0] $end
     $var wire 32 1 io_ecnt_0_bits [31:0] $end
     $var wire  1 0 io_ecnt_0_valid $end
     $var wire  1 / io_finish $end
     $var wire  8 F io_host_req_addr [7:0] $end
     $var wire  1 # io_host_req_deq $end
     $var wire  1 E io_host_req_opcode $end
     $var wire  1 D io_host_req_valid $end
     $var wire 32 G io_host_req_value [31:0] $end
     $var wire 32 % io_host_resp_bits [31:0] $end
     $var wire  1 $ io_host_resp_valid $end
     $var wire  1 . io_launch $end
     $var wire 64 4 io_ptrs_0 [63:0] $end
     $var wire 64 6 io_ptrs_1 [63:0] $end
     $var wire 32 2 io_vals_0 [31:0] $end
     $var wire 32 3 io_vals_1 [31:0] $end
     $var wire 32 % rdata [31:0] $end
     $var wire 32 8 reg_0 [31:0] $end
     $var wire 32 9 reg_1 [31:0] $end
     $var wire 32 2 reg_2 [31:0] $end
     $var wire 32 3 reg_3 [31:0] $end
     $var wire 32 : reg_4 [31:0] $end
     $var wire 32 ; reg_5 [31:0] $end
     $var wire 32 < reg_6 [31:0] $end
     $var wire 32 = reg_7 [31:0] $end
     $var wire  1 M reset $end
     $var wire  1 $ state $end
    $upscope $end
   $upscope $end
  $upscope $end
 $upscope $end
$enddefinitions $end


#0
0#
1$
b10011110111100000111011111001111 %
0&
0'
b0011001000111100000000010011010000000111101100100010111001001001 (
1*
b1010111111011000110110001110001110010011011011111110001101110010 +
0-
0.
0/
00
b11111111100001100111011011010111 1
b11101000001110111001000111000000 2
b00000011001110101111000011000001 3
b0111110000100011111111101111001110110111100101010010110111000111 4
b1110000110000111101000111011111100111011100000101010010000100111 6
b01111110011010000111101010101100 8
b01100000101000000111101110011100 9
b10110111100101010010110111000111 :
b01111100001000111111111011110011 ;
b00111011100000101010010000100111 <
b11100001100001111010001110111111 =
b100 >
b11111111010001100110011001100010 ?
b1000010010100011000000001000111001101101101100111000100101001110 @
b0011001000111100000000010011010000000111101100100010111001001001 B
0D
0E
b00000000 F
b00000000000000000000000000000000 G
0H
b0000000000000000000000000000000000000000000000000000000000000000 I
0K
0L
1M
0N
0O
b00000000 P
b00000000000000000000000000001000 Q
b00000000000000000000000000100000 R
b00000000000000000000000001000000 S
b00000000000000000000000000000000 T
b00000000000000000000000000000000 U
#1
0$
b00000000000000000000000000000000 %
b0011001000111100000000010011010000000111101100100010111001010001 (
0*
b00000000000000000000000000000000 1
b00000000000000000000000000000000 2
b00000000000000000000000000000000 3
b0000000000000000000000000000000000000000000000000000000000000000 4
b0000000000000000000000000000000000000000000000000000000000000000 6
b00000000000000000000000000000000 8
b00000000000000000000000000000000 9
b00000000000000000000000000000000 :
b00000000000000000000000000000000 ;
b00000000000000000000000000000000 <
b00000000000000000000000000000000 =
b000 >
b11111111010001100110011001100011 ?
b1000010010100011000000001000111001101101101100111000100101010110 @
b0011001000111100000000010011010000000111101100100010111001010001 B
1L
#2
0L
#3
b0000000000000000000000000000000000000000000000000000000000000000 (
b00000000000000000000000000000000 ?
b0000000000000000000000000000000000000000000000000000000000000000 @
b0000000000000000000000000000000000000000000000000000000000000000 B
1L
#4
0L
#5
1L
#6
0L
#7
1L
#8
0L
#9
1L
#10
0L
#11
1L
#12
0L
#13
1L
#14
0L
#15
1L
#16
0L
#17
1L
#18
0L
#19
1L
#20
0L
0M
#21
1K
1L
1N
1O
#22
0K
0L
0N
0O
#23
1#
1D
1E
b00001000 F
b00000000000000000000000000111000 G
b1101111010101101101111101110111111011110101011011011111011101111 I
1L
1N
#24
0L
0N
#25
b00000000000000000000000000111000 2
1L
1N
#26
0L
0N
#27
b00001100 F
b00000000000000000000000000111100 G
1L
1N
#28
0L
0N
#29
b00000000000000000000000000111100 3
b00010000 F
b01110000100011110000001011000000 G
1L
1N
#30
0L
0N
#31
b0000000000000000000000000000000001110000100011110000001011000000 4
b01110000100011110000001011000000 :
b00010100 F
b00000000000000000111111111000110 G
1L
1N
#32
0L
0N
#33
b0000000000000000011111111100011001110000100011110000001011000000 4
b00000000000000000111111111000110 ;
b0000000000000000000000000000000001110000100011110000001011000000 @
b00011000 F
b01110000100011110000011101000000 G
1L
1N
#34
0L
0N
#35
b0000000000000000000000000000000001110000100011110000011101000000 6
b01110000100011110000011101000000 <
b0000000000000000011111111100011001110000100011110000001011000000 @
b00011100 F
b00000000000000000111111111000110 G
1L
1N
#36
0L
0N
#37
b0000000000000000000000000000000001110000100011110000011101000000 (
b0000000000000000011111111100011001110000100011110000011101000000 6
b00000000000000000111111111000110 =
b0000000000000000000000000000000001110000100011110000011101000000 B
b00000000 F
b00000000000000000000000000000001 G
1L
1N
#38
0L
0N
#39
b0000000000000000011111111100011001110000100011110000011101000000 (
1.
b00000000000000000000000000000001 8
b0000000000000000011111111100011001110000100011110000011101000000 B
0E
b00000000000000000000000000000000 G
1L
1N
#40
0L
0N
#41
0#
1$
b00000000000000000000000000000001 %
1&
b0000000000000000011111111100011001110000100011110000001011000000 (
b001 >
0D
1E
b10101101 F
b00000000000000000000101110101101 G
1L
1N
#42
0L
0N
#43
0$
0&
b0000000000000000011111111100011001110000100011110000011101000000 (
1-
b00000000000000000000000000000001 1
b010 >
1L
1N
#44
0L
0N
#45
b00000000000000000000000000000010 1
1H
b0000000000000000000000000000000000000000000000000000000000001011 I
1L
1N
#46
0L
0N
#47
1&
1'
b0000000000000000000000000000000000000000000000000000000001000011 +
0-
b00000000000000000000000000000011 1
b011 >
0H
b1101111010101101101111101110111111011110101011011011111011101111 I
1L
1N
#48
0L
0N
#49
0&
0'
1*
b00000000000000000000000000000100 1
b100 >
1L
1N
#50
0L
0N
#51
1&
b0000000000000000011111111100011001110000100011110000001011001000 (
0*
b00000000000000000000000000000101 1
b001 >
b00000000000000000000000000000001 ?
b0000000000000000011111111100011001110000100011110000001011001000 @
b0000000000000000011111111100011001110000100011110000011101001000 B
1L
1N
#52
0L
0N
#53
0&
b0000000000000000011111111100011001110000100011110000011101001000 (
1-
b00000000000000000000000000000110 1
b010 >
1L
1N
#54
0L
0N
#55
b00000000000000000000000000000111 1
1H
b0000000000000000000000000000000000000000000000000000000000000111 I
1L
1N
#56
0L
0N
#57
1&
1'
b0000000000000000000000000000000000000000000000000000000000111111 +
0-
b00000000000000000000000000001000 1
b011 >
0H
b1101111010101101101111101110111111011110101011011011111011101111 I
1L
1N
#58
0L
0N
#59
0&
0'
1*
b00000000000000000000000000001001 1
b100 >
1L
1N
#60
0L
0N
#61
1&
b0000000000000000011111111100011001110000100011110000001011010000 (
0*
b00000000000000000000000000001010 1
b001 >
b00000000000000000000000000000010 ?
b0000000000000000011111111100011001110000100011110000001011010000 @
b0000000000000000011111111100011001110000100011110000011101010000 B
1L
1N
#62
0L
0N
#63
0&
b0000000000000000011111111100011001110000100011110000011101010000 (
1-
b00000000000000000000000000001011 1
b010 >
1L
1N
#64
0L
0N
#65
b00000000000000000000000000001100 1
1H
b0000000000000000000000000000000000000000000000000000000000001110 I
1L
1N
#66
0L
0N
#67
1&
1'
b0000000000000000000000000000000000000000000000000000000001000110 +
0-
b00000000000000000000000000001101 1
b011 >
0H
b1101111010101101101111101110111111011110101011011011111011101111 I
1L
1N
#68
0L
0N
#69
0&
0'
1*
b00000000000000000000000000001110 1
b100 >
1L
1N
#70
0L
0N
#71
1&
b0000000000000000011111111100011001110000100011110000001011011000 (
0*
b00000000000000000000000000001111 1
b001 >
b00000000000000000000000000000011 ?
b0000000000000000011111111100011001110000100011110000001011011000 @
b0000000000000000011111111100011001110000100011110000011101011000 B
1L
1N
#72
0L
0N
#73
1#
0&
b0000000000000000011111111100011001110000100011110000011101011000 (
1-
b00000000000000000000000000010000 1
b010 >
1D
0E
b00000000 F
b00000000000000000000000000000000 G
1L
1N
#74
0L
0N
#75
0#
1$
b00000000000000000000000000010001 1
1H
b0000000000000000000000000000000000000000000000000000000000010010 I
1L
1N
#76
0L
0N
#77
0$
1&
1'
b0000000000000000000000000000000000000000000000000000000001001010 +
0-
b00000000000000000000000000010010 1
b011 >
0D
1E
b10101101 F
b00000000000000000000101110101101 G
0H
b1101111010101101101111101110111111011110101011011011111011101111 I
1L
1N
#78
0L
0N
#79
0&
0'
1*
b00000000000000000000000000010011 1
b100 >
1L
1N
#80
0L
0N
#81
1&
b0000000000000000011111111100011001110000100011110000001011100000 (
0*
b00000000000000000000000000010100 1
b001 >
b00000000000000000000000000000100 ?
b0000000000000000011111111100011001110000100011110000001011100000 @
b0000000000000000011111111100011001110000100011110000011101100000 B
1L
1N
#82
0L
0N
#83
0&
b0000000000000000011111111100011001110000100011110000011101100000 (
1-
b00000000000000000000000000010101 1
b010 >
1L
1N
#84
0L
0N
#85
b00000000000000000000000000010110 1
1H
b0000000000000000000000000000000000000000000000000000000000010001 I
1L
1N
#86
0L
0N
#87
1#
1&
1'
b0000000000000000000000000000000000000000000000000000000001001001 +
0-
b00000000000000000000000000010111 1
b011 >
1D
0E
b00000000 F
b00000000000000000000000000000000 G
0H
b1101111010101101101111101110111111011110101011011011111011101111 I
1L
1N
#88
0L
0N
#89
0#
1$
0&
0'
1*
b00000000000000000000000000011000 1
b100 >
1L
1N
#90
0L
0N
#91
0$
1&
b0000000000000000011111111100011001110000100011110000001011101000 (
0*
b00000000000000000000000000011001 1
b001 >
b00000000000000000000000000000101 ?
b0000000000000000011111111100011001110000100011110000001011101000 @
b0000000000000000011111111100011001110000100011110000011101101000 B
0D
1E
b10101101 F
b00000000000000000000101110101101 G
1L
1N
#92
0L
0N
#93
0&
b0000000000000000011111111100011001110000100011110000011101101000 (
1-
b00000000000000000000000000011010 1
b010 >
1L
1N
#94
0L
0N
#95
b00000000000000000000000000011011 1
1H
b0000000000000000000000000000000000000000000000000000000000111011 I
1L
1N
#96
0L
0N
#97
1&
1'
b0000000000000000000000000000000000000000000000000000000001110011 +
0-
b00000000000000000000000000011100 1
b011 >
0H
b1101111010101101101111101110111111011110101011011011111011101111 I
1L
1N
#98
0L
0N
#99
0&
0'
1*
b00000000000000000000000000011101 1
b100 >
1L
1N
#100
0L
0N
#101
1&
b0000000000000000011111111100011001110000100011110000001011110000 (
0*
b00000000000000000000000000011110 1
b001 >
b00000000000000000000000000000110 ?
b0000000000000000011111111100011001110000100011110000001011110000 @
b0000000000000000011111111100011001110000100011110000011101110000 B
1L
1N
#102
0L
0N
#103
0&
b0000000000000000011111111100011001110000100011110000011101110000 (
1-
b00000000000000000000000000011111 1
b010 >
1L
1N
#104
0L
0N
#105
b00000000000000000000000000100000 1
1H
b0000000000000000000000000000000000000000000000000000000000000101 I
1L
1N
#106
0L
0N
#107
1&
1'
b0000000000000000000000000000000000000000000000000000000000111101 +
0-
b00000000000000000000000000100001 1
b011 >
0H
b1101111010101101101111101110111111011110101011011011111011101111 I
1L
1N
#108
0L
0N
#109
1#
0&
0'
1*
b00000000000000000000000000100010 1
b100 >
1D
0E
b00000000 F
b00000000000000000000000000000000 G
1L
1N
#110
0L
0N
#111
0#
1$
1&
b0000000000000000011111111100011001110000100011110000001011111000 (
0*
b00000000000000000000000000100011 1
b001 >
b00000000000000000000000000000111 ?
b0000000000000000011111111100011001110000100011110000001011111000 @
b0000000000000000011111111100011001110000100011110000011101111000 B
1L
1N
#112
0L
0N
#113
0$
0&
b0000000000000000011111111100011001110000100011110000011101111000 (
1-
b00000000000000000000000000100100 1
b010 >
0D
1E
b10101101 F
b00000000000000000000101110101101 G
1L
1N
#114
0L
0N
#115
b00000000000000000000000000100101 1
1H
b0000000000000000000000000000000000000000000000000000000000110000 I
1L
1N
#116
0L
0N
#117
1&
1'
b0000000000000000000000000000000000000000000000000000000001101000 +
0-
b00000000000000000000000000100110 1
b011 >
0H
b1101111010101101101111101110111111011110101011011011111011101111 I
1L
1N
#118
0L
0N
#119
0&
0'
1*
b00000000000000000000000000100111 1
b100 >
1L
1N
#120
0L
0N
#121
1&
b0000000000000000011111111100011001110000100011110000001100000000 (
0*
b00000000000000000000000000101000 1
b001 >
b00000000000000000000000000001000 ?
b0000000000000000011111111100011001110000100011110000001100000000 @
b0000000000000000011111111100011001110000100011110000011110000000 B
1L
1N
#122
0L
0N
#123
0&
b0000000000000000011111111100011001110000100011110000011110000000 (
1-
b00000000000000000000000000101001 1
b010 >
1L
1N
#124
0L
0N
#125
b00000000000000000000000000101010 1
1H
b0000000000000000000000000000000000000000000000000000000000011110 I
1L
1N
#126
0L
0N
#127
1&
1'
b0000000000000000000000000000000000000000000000000000000001010110 +
0-
b00000000000000000000000000101011 1
b011 >
0H
b1101111010101101101111101110111111011110101011011011111011101111 I
1L
1N
#128
0L
0N
#129
0&
0'
1*
b00000000000000000000000000101100 1
b100 >
1L
1N
#130
0L
0N
#131
1&
b0000000000000000011111111100011001110000100011110000001100001000 (
0*
b00000000000000000000000000101101 1
b001 >
b00000000000000000000000000001001 ?
b0000000000000000011111111100011001110000100011110000001100001000 @
b0000000000000000011111111100011001110000100011110000011110001000 B
1L
1N
#132
0L
0N
#133
1#
0&
b0000000000000000011111111100011001110000100011110000011110001000 (
1-
b00000000000000000000000000101110 1
b010 >
1D
0E
b00000000 F
b00000000000000000000000000000000 G
1L
1N
#134
0L
0N
#135
0#
1$
b00000000000000000000000000101111 1
1H
b0000000000000000000000000000000000000000000000000000000000111011 I
1L
1N
#136
0L
0N
#137
0$
1&
1'
b0000000000000000000000000000000000000000000000000000000001110011 +
0-
b00000000000000000000000000110000 1
b011 >
0D
1E
b10101101 F
b00000000000000000000101110101101 G
0H
b1101111010101101101111101110111111011110101011011011111011101111 I
1L
1N
#138
0L
0N
#139
0&
0'
1*
b00000000000000000000000000110001 1
b100 >
1L
1N
#140
0L
0N
#141
1&
b0000000000000000011111111100011001110000100011110000001100010000 (
0*
b00000000000000000000000000110010 1
b001 >
b00000000000000000000000000001010 ?
b0000000000000000011111111100011001110000100011110000001100010000 @
b0000000000000000011111111100011001110000100011110000011110010000 B
1L
1N
#142
0L
0N
#143
0&
b0000000000000000011111111100011001110000100011110000011110010000 (
1-
b00000000000000000000000000110011 1
b010 >
1L
1N
#144
0L
0N
#145
b00000000000000000000000000110100 1
1H
b0000000000000000000000000000000000000000000000000000000000011000 I
1L
1N
#146
0L
0N
#147
1&
1'
b0000000000000000000000000000000000000000000000000000000001010000 +
0-
b00000000000000000000000000110101 1
b011 >
0H
b1101111010101101101111101110111111011110101011011011111011101111 I
1L
1N
#148
0L
0N
#149
0&
0'
1*
b00000000000000000000000000110110 1
b100 >
1L
1N
#150
0L
0N
#151
1&
b0000000000000000011111111100011001110000100011110000001100011000 (
0*
b00000000000000000000000000110111 1
b001 >
b00000000000000000000000000001011 ?
b0000000000000000011111111100011001110000100011110000001100011000 @
b0000000000000000011111111100011001110000100011110000011110011000 B
1L
1N
#152
0L
0N
#153
0&
b0000000000000000011111111100011001110000100011110000011110011000 (
1-
b00000000000000000000000000111000 1
b010 >
1L
1N
#154
0L
0N
#155
b00000000000000000000000000111001 1
1H
b0000000000000000000000000000000000000000000000000000000000011010 I
1L
1N
#156
0L
0N
#157
1&
1'
b0000000000000000000000000000000000000000000000000000000001010010 +
0-
b00000000000000000000000000111010 1
b011 >
0H
b1101111010101101101111101110111111011110101011011011111011101111 I
1L
1N
#158
0L
0N
#159
0&
0'
1*
b00000000000000000000000000111011 1
b100 >
1L
1N
#160
0L
0N
#161
1#
1&
b0000000000000000011111111100011001110000100011110000001100100000 (
0*
b00000000000000000000000000111100 1
b001 >
b00000000000000000000000000001100 ?
b0000000000000000011111111100011001110000100011110000001100100000 @
b0000000000000000011111111100011001110000100011110000011110100000 B
1D
0E
b00000000 F
b00000000000000000000000000000000 G
1L
1N
#162
0L
0N
#163
0#
1$
0&
b0000000000000000011111111100011001110000100011110000011110100000 (
1-
b00000000000000000000000000111101 1
b010 >
1L
1N
#164
0L
0N
#165
0$
b00000000000000000000000000111110 1
0D
1E
b10101101 F
b00000000000000000000101110101101 G
1H
b0000000000000000000000000000000000000000000000000000000000111110 I
1L
1N
#166
0L
0N
#167
1&
1'
b0000000000000000000000000000000000000000000000000000000001110110 +
0-
b00000000000000000000000000111111 1
b011 >
0H
b1101111010101101101111101110111111011110101011011011111011101111 I
1L
1N
#168
0L
0N
#169
0&
0'
1*
b00000000000000000000000001000000 1
b100 >
1L
1N
#170
0L
0N
#171
1&
b0000000000000000011111111100011001110000100011110000001100101000 (
0*
b00000000000000000000000001000001 1
b001 >
b00000000000000000000000000001101 ?
b0000000000000000011111111100011001110000100011110000001100101000 @
b0000000000000000011111111100011001110000100011110000011110101000 B
1L
1N
#172
0L
0N
#173
0&
b0000000000000000011111111100011001110000100011110000011110101000 (
1-
b00000000000000000000000001000010 1
b010 >
1L
1N
#174
0L
0N
#175
b00000000000000000000000001000011 1
1H
b0000000000000000000000000000000000000000000000000000000000010001 I
1L
1N
#176
0L
0N
#177
1&
1'
b0000000000000000000000000000000000000000000000000000000001001001 +
0-
b00000000000000000000000001000100 1
b011 >
0H
b1101111010101101101111101110111111011110101011011011111011101111 I
1L
1N
#178
0L
0N
#179
0&
0'
1*
b00000000000000000000000001000101 1
b100 >
1L
1N
#180
0L
0N
#181
1&
b0000000000000000011111111100011001110000100011110000001100110000 (
0*
b00000000000000000000000001000110 1
b001 >
b00000000000000000000000000001110 ?
b0000000000000000011111111100011001110000100011110000001100110000 @
b0000000000000000011111111100011001110000100011110000011110110000 B
1L
1N
#182
0L
0N
#183
0&
b0000000000000000011111111100011001110000100011110000011110110000 (
1-
b00000000000000000000000001000111 1
b010 >
1L
1N
#184
0L
0N
#185
b00000000000000000000000001001000 1
1H
b0000000000000000000000000000000000000000000000000000000000010110 I
1L
1N
#186
0L
0N
#187
1&
1'
b0000000000000000000000000000000000000000000000000000000001001110 +
0-
b00000000000000000000000001001001 1
b011 >
0H
b1101111010101101101111101110111111011110101011011011111011101111 I
1L
1N
#188
0L
0N
#189
1#
0&
0'
1*
b00000000000000000000000001001010 1
b100 >
1D
0E
b00000000 F
b00000000000000000000000000000000 G
1L
1N
#190
0L
0N
#191
0#
1$
1&
b0000000000000000011111111100011001110000100011110000001100111000 (
0*
b00000000000000000000000001001011 1
b001 >
b00000000000000000000000000001111 ?
b0000000000000000011111111100011001110000100011110000001100111000 @
b0000000000000000011111111100011001110000100011110000011110111000 B
1L
1N
#192
0L
0N
#193
0$
0&
b0000000000000000011111111100011001110000100011110000011110111000 (
1-
b00000000000000000000000001001100 1
b010 >
0D
1E
b10101101 F
b00000000000000000000101110101101 G
1L
1N
#194
0L
0N
#195
b00000000000000000000000001001101 1
1H
b0000000000000000000000000000000000000000000000000000000000100000 I
1L
1N
#196
0L
0N
#197
1&
1'
b0000000000000000000000000000000000000000000000000000000001011000 +
0-
b00000000000000000000000001001110 1
b011 >
0H
b1101111010101101101111101110111111011110101011011011111011101111 I
1L
1N
#198
0L
0N
#199
0&
0'
1*
b00000000000000000000000001001111 1
b100 >
1L
1N
#200
0L
0N
#201
1&
b0000000000000000011111111100011001110000100011110000001101000000 (
0*
b00000000000000000000000001010000 1
b001 >
b00000000000000000000000000010000 ?
b0000000000000000011111111100011001110000100011110000001101000000 @
b0000000000000000011111111100011001110000100011110000011111000000 B
1L
1N
#202
0L
0N
#203
0&
b0000000000000000011111111100011001110000100011110000011111000000 (
1-
b00000000000000000000000001010001 1
b010 >
1L
1N
#204
0L
0N
#205
b00000000000000000000000001010010 1
1H
b0000000000000000000000000000000000000000000000000000000000001100 I
1L
1N
#206
0L
0N
#207
1&
1'
b0000000000000000000000000000000000000000000000000000000001000100 +
0-
b00000000000000000000000001010011 1
b011 >
0H
b1101111010101101101111101110111111011110101011011011111011101111 I
1L
1N
#208
0L
0N
#209
0&
0'
1*
b00000000000000000000000001010100 1
b100 >
1L
1N
#210
0L
0N
#211
1&
b0000000000000000011111111100011001110000100011110000001101001000 (
0*
b00000000000000000000000001010101 1
b001 >
b00000000000000000000000000010001 ?
b0000000000000000011111111100011001110000100011110000001101001000 @
b0000000000000000011111111100011001110000100011110000011111001000 B
1L
1N
#212
0L
0N
#213
0&
b0000000000000000011111111100011001110000100011110000011111001000 (
1-
b00000000000000000000000001010110 1
b010 >
1L
1N
#214
0L
0N
#215
b00000000000000000000000001010111 1
1H
b0000000000000000000000000000000000000000000000000000000000110000 I
1L
1N
#216
0L
0N
